Kapitel 11 Datenstrukturen | R für empirische Wissenschaften
…
Dasselbe gilt auch für die Ergebnisse der Statistikfunktionen. Beim Vergleich deren jeweiliger Klasse mithilfe der Funktion class() kriegen wir einen anderes Ergebnis für einen t Test als für ein lineares Regressionsmodell.

class(t.test(Leukos_t6 ~ Geschlecht, data = chemo))

[1] "htest"

class(lm(Leukos_t6 ~ Geschlecht, data = chemo))

[1] "lm"

Die Funktion s3_methods_generic() des sloop Packages gibt Auskunft über alle von einer Funktion unterstützten Klassen. An dieser Stelle möchten wir summary() untersuchen.

s3_methods_generic("summary")

# A tibble: 134 × 4
  generic class     visible source             
  <chr>   <chr>     <lgl>   <chr>              
1 summary aareg     FALSE   registered S3method
2 summary afex_aov  FALSE   registered S3method
3 summary allFit    FALSE   registered S3method
4 summary Anova.mlm FALSE   registered S3method
# ℹ 130 more rows
…
