Kapitel 8 Datenvorverarbeitung | R für empirische Wissenschaften
…
video %>% 
  names()

## [1] "Titel"     "Staffel"   "Folge"     "Watchdate"

Eine Alternative Schreibweise wäre names(video). Von Zeilennamen (rownames()) sollte grundsätzlich Abstand genommen werden, wenn man nicht gerade mit Matrizen arbeitet (siehe 13.2). Falls der Datensatz Zeilennamen enthält, die tatsächlich von Bedeutung sind, sollte man sie mit rownames_to_column("Spaltenname") aus dem tibble Package in eine eigene Spalte schreiben.

8.3 select(), rename() und relocate()

Zur Auswahl verschiedener Spalten, verwendet man select(). Möchten wir uns also nur die Spalten Titel und Staffel anschauen, würden wir

video %>% 
  select(Titel, Staffel)

## # A tibble: 1,493 x 2
##   Titel           Staffel  
##   <chr>           <chr>    
## 1 Suits           Staffel 7
## 2 Suits           Staffel 1
## 3 Death Note      Staffel 1
## 4 Haus des Geldes Teil 3   
## # ... with 1,489 more rows

schreiben. Alternativ könnte man auch select(video, Titel, Staffel) verwenden. Das hat zwar den Vorteil bei einem Befehl kürzer zu sein als die Verwendung der Pipe, allerdings ist es somit nicht konsistent zu den restlichen Befehlen und wird daher nicht verwendet. Zur Auswahl der Spalten von Titel bis Folge verwendet man einen Doppelpunkt.

video %>% 
  select(Titel:Folge)   

## # A tibble: 1,493 x 3
##   Titel           Staffel   Folge                             
##   <chr>           <chr>     <chr>                             
## 1 Suits           Staffel 7 Neues Spiel                       
## 2 Suits           Staffel 1 Patente und andere Unwaegbarkeiten
## 3 Death Note      Staffel 1 Ein Geschaeft                     
## 4 Haus des Geldes Teil 3    Verloren                          
## # ... with 1,489 more rows

Möchte man nur die Spalte Watchdate entfernen und den Rest ausgeben, erreicht man dies mit einem Minus vor dem Spaltennamen.

video %>% 
  select(-Watchdate) 

## # A tibble: 1,493 x 3
##   Titel           Staffel   Folge                             
##   <chr>           <chr>     <chr>                             
## 1 Suits           Staffel 7 Neues Spiel                       
## 2 Suits           Staffel 1 Patente und andere Unwaegbarkeiten
## 3 Death Note      Staffel 1 Ein Geschaeft                     
## 4 Haus des Geldes Teil 3    Verloren                          
## # ... with 1,489 more rows

Man kann auch einen Bereich von Spalten aus dem Datensatz herauslöschen. Die Besonderheit hierbei ist die Notwendigkeit, den Wertebereich in extra Klammern zu setzen.

video %>% 
  select(-(Titel:Folge))

Beachte, dass sämtliche Änderungen, die Du am Datensatz vollziehst, erst gespeichert werden, wenn Du sie mit dem Zuweisungspfeil (siehe Kapitel 4) einer Variable zuweist. Wenn dieser Variablenname bereits vergeben ist (z.B. der bisherige Datensatzname) wird dieser überschrieben. Um das rückgängig zu machen, muss der Datensatz dann einfach wieder neu eingelesen werden. Es empfiehlt sich bei einschneidenden Änderungen einen neuen Variablennamen zu verwenden.

Möchte man der ausgewählten Spalte einen neuen Namen geben, schreibt man den neuen Namen auf die linke Seite der jeweiligen Gleichung.

video %>% 
  select(Datum = Watchdate)

## # A tibble: 1,493 x 1
##   Datum     
##   <date>    
## 1 2019-07-22
## 2 2019-07-22
## 3 2019-07-21
## 4 2019-07-21
## # ... with 1,489 more rows

Wenn man hingegen sämtliche Spalten behalten möchte und nur eine oder mehrere Spalten umbenennen mag, erreicht man dies auf gleiche Art und Weise mit rename().

video %>% 
  rename(Datum = Watchdate)

## # A tibble: 1,493 x 4
##   Titel           Staffel   Folge                              Datum     
##   <chr>           <chr>     <chr>                              <date>    
## 1 Suits           Staffel 7 Neues Spiel                        2019-07-22
## 2 Suits           Staffel 1 Patente und andere Unwaegbarkeiten 2019-07-22
## 3 Death Note      Staffel 1 Ein Geschaeft                      2019-07-21
## 4 Haus des Geldes Teil 3    Verloren                           2019-07-21
## # ... with 1,489 more rows
8.4 across()

8.5 filter() und arrange()

8.6 group_by() und mutate()

8.7 rowwise()

Die Dimensionen – also die Anzahl der Zeilen und Spalten – eines Datensatzes, werden einem direkt über dem Datensatz ausgegeben. In dem Fall hat der Nutzer z.B. 1.493 Serien oder Filme geschaut und wir können Informationen darüber in 4 Spalten sehen. Würden wir jetzt aber zum Beispiel die Häufigkeit eines Titels pro Gruppe herausfinden wollen (oder z.B. wie die Geschlechter eines Experiments verteilt sind), erreichen wir dies mit einer Kombination aus group_by() und count(). Ersteres gruppiert den Datensatz und letzteres zählt die einzelnen Gruppen aus.

video %>% 
  group_by(Titel) %>% 
  count() 

## # A tibble: 146 x 2
## # Groups:   Titel [146]
##   Titel                  n
##   <chr>              <int>
## 1 1 Night                1
## 2 500 Days of Summer     1
## 3 8 Mile                 1
## 4 Abgang mit Stil        1
## # ... with 142 more rows

Da wir nur die ersten vier der 1.493 Einträge angezeigt bekommen, bringt uns das relativ wenig, um herauszufinden, welche Filme oder Serien am häufigsten geschaut wurden. Mit arrange() und desc() (englisch für descendent), kann man die Reihenfolge umdrehen. Beachte, dass die Reihenfolge auf den gezählten Häufigkeiten beruht, die die count() Funktion n nennt.

video %>% 
  group_by(Titel) %>% 
  count() %>% 
  arrange(desc(n)) %>% 
  ungroup()

## # A tibble: 146 x 2
##   Titel                     n
##   <chr>                 <int>
## 1 The Big Bang Theory     232
## 2 How I Met Your Mother   208
## 3 New Girl                131
## 4 Suits                    94
## # ... with 142 more rows
…
Eine mächtige Kombination mit mutate() ist case_when(). Mit dieser Funktion kann man für die Fälle (case) für die die Bedingungen zutrifft (when), einen Wert zuweisen. Wobei Bedingung und Wert von einer ~ (gesprochen: Tilde) getrennt werden.

video1 %>% 
  mutate(Gefallen = case_when(
    Anzahl >= 80 ~ "Groß",
    Anzahl < 80 & Anzahl >= 40 ~ "Mittel",
    Anzahl < 40 ~ "Gering"
  ))

## # A tibble: 146 x 3
##   Titel                 Anzahl Gefallen
##   <chr>                  <int> <chr>   
## 1 The Big Bang Theory      232 Groß    
## 2 How I Met Your Mother    208 Groß    
## 3 New Girl                 131 Groß    
## 4 Suits                     94 Groß    
## # ... with 142 more rows

Dabei müssen die Datentypen auf der linken Seite der Tilde (~) immer logisch sein und auf der rechten Seite immer von dem selben Datentyp (hier Character). Anstatt wie in diesem Beispiel alle erdenklichen Ausprägungsbereiche abzudecken, könnte man alle restlichen mit TRUE ansprechen. Wäre man z.B. ein Freund von Schwarz-weiß Denken, könnte man mit

video1 %>% 
  mutate(Liebe = case_when(
    Anzahl >= 80 ~ "Groß",
    TRUE ~ "Klein"
  ))

## # A tibble: 146 x 3
##   Titel                 Anzahl Liebe
##   <chr>                  <int> <chr>
## 1 The Big Bang Theory      232 Groß 
## 2 How I Met Your Mother    208 Groß 
## 3 New Girl                 131 Groß 
## 4 Suits                     94 Groß 
## # ... with 142 more rows

sämtliche Werte in große und kleine Zuneigung kategorisieren. In dem Fall entspricht TRUE eine kleinere Anzahl als 80.

Zusätzlich zu den normalen Funktionsaufrufen, bietet dplyr auch noch praktische leicht abgewandelte Funktionen mit Suffix an. Dabei können mehrere Spalten mit *_at (z.B. mutate_at()) ausgewählt werden oder gleich alle mit *_all. Ein weiteres Suffix ist *_if, womit man ähnlich wie bei case_when() die Funktion anwendet, wenn (if) die Bedingung zutrifft. Es werden nun und in den folgenden Kapiteln einige praktische Anwendungsfälle dieser Suffix-Funktionen gezeigt. Syntaktisch sind die Funktion mit jeweiligen Suffix identisch. So müssen die ausgewählten Variablen für Funktionen mit dem Suffix *_at innerhalb von vars() stehen.

video %>% 
  select_at(vars(Titel, Folge))

## # A tibble: 1,493 x 2
##   Titel           Folge                             
##   <chr>           <chr>                             
## 1 Suits           Neues Spiel                       
## 2 Suits           Patente und andere Unwaegbarkeiten
## 3 Death Note      Ein Geschaeft                     
## 4 Haus des Geldes Verloren                          
## # ... with 1,489 more rows

Während diese Schreibweise noch identisch mit

video %>% 
  select(Titel, Folge)

ist, bietet selbst hier die Suffix-Funktion in manchen Kontexten erhebliche Vorteile. Zum Beispiel kann man innerhalb von vars() nach Spalten suchen, die mit einem bestimmten Buchstaben oder eine Buchstabenkombination anfangen (starts_with()), enden (ends_with()) oder die einen eine Character-Kombination enthalten (contains()). Möchten wir zum Beispiel alle Spalten auswählen, die mit T anfangen, würden wir das so machen:

video %>% 
  select_at(vars(starts_with("T")))

## # A tibble: 1,493 x 1
##   Titel          
##   <chr>          
## 1 Suits          
## 2 Suits          
## 3 Death Note     
## 4 Haus des Geldes
## # ... with 1,489 more rows

Die anderen beiden Funktionen sind syntaktisch identisch einzusetzen. Innerhalb von vars() gelten die selben Regeln wie bei der Spaltenauswahl im normalen select(). Mit mutate_at() könnte man z.B. den Datentyp einer oder mehrerer Spalten umwandeln. In Kapitel 13.5 werden die verschiedenen Funktionen näher beschrieben. Aber aufgrund der Häufigkeit, dass zum Beispiel eine fälschlicherweise als Character eingelesene (weil es in SPSS oder Excel falsch eingespeichert wurde) Zahlen-Spalten vorkommt, sei es an dieser Stelle exemplarisch gezeigt. Hier wird die Spalte Anzahl (numerisch) als character umgewandelt.

video1 %>% 
  mutate_at(vars(Anzahl), as.character)

## # A tibble: 146 x 2
##   Titel                 Anzahl
##   <chr>                 <chr> 
## 1 The Big Bang Theory   232   
## 2 How I Met Your Mother 208   
## 3 New Girl              131   
## 4 Suits                 94    
## # ... with 142 more rows

Der *_if Suffix knüpft die ausgeführte Funktion an eine Bedingung. Wenn (if) die Bedingung erfüllt ist, werden bei select_if() z.B. Spalten ausgewählt, auf die die Bedingung zutrifft.

video1 %>% 
  select_if(is.numeric)

## # A tibble: 146 x 1
##   Anzahl
##    <int>
## 1    232
## 2    208
## 3    131
## 4     94
## # ... with 142 more rows

Alle numerischen Spalten werden ausgewählt. Bei mutate_if() kann man direkt eine Funktion anwenden, wenn die Bedingung zutrifft. Zum Beispiel könnte man mit

video1 %>% 
  mutate_if(is.numeric, as.character)

## # A tibble: 146 x 2
##   Titel                 Anzahl
##   <chr>                 <chr> 
## 1 The Big Bang Theory   232   
## 2 How I Met Your Mother 208   
## 3 New Girl              131   
## 4 Suits                 94    
## # ... with 142 more rows

alle numerischen Spalten in Character umwandeln (siehe Kapitel 13.5). Beim *_all* Suffix wird die angegebene Funktion gleich auf alle Spalten angewandt. So könnte man beispielsweise mit rename_all() alle Spalten umbenennen oder mit mutate_all() die Umlaute in allen Spalten mit ae, oe und ue ersetzen (siehe Kapitel 8.9).

Ein weiteres häufig benötigtes Konzept der Datenvorbereitung ist das zeilenweise Anwenden einer Funktion. Zum Beispiel das Berechnen des Mittelwertes verschiedener Spalten pro Person. Dafür schauen wir uns einen anderen Datensatz an. Der big_five Datensatz enthält unter anderem die mittleren Ausprägungen von vier der fünf Überkategorien der Persönlichkeitsfaktoren (siehe Anhang). Die Informationen über die fünfte, Offenheit, ist über zehn Spalten (O1 bis O10) verteilt.

big_five

## # A tibble: 200 x 17
##   Alter Geschlecht Herkunft Extraversion Neurotizismus Vertraeglichkeit Gewissenhaftigkeit    O1    O2    O3    O4    O5    O6    O7    O8    O9   O10
##   <dbl> <chr>      <chr>           <dbl>         <dbl>            <dbl>              <dbl> <dbl> <dbl> <dbl> <dbl> <dbl> <dbl> <dbl> <dbl> <dbl> <dbl>
## 1    36 m          DE                3             1.9              3.4                3.3     5     1     5     1     4     1     5     5     4     5
## 2    30 f          US                3.1           3.4              3.1                2.7     5     3     5     3     4     1     3     5     5     4
## 3    23 m          US                3.4           2.4              3.6                3       3     3     5     3     4     1     4     2     3     4
## 4    54 m          US                3.3           4.2              3.6                3       2     5     3     4     3     3     1     1     4     3
## # ... with 196 more rows

Wählen wir zunächst die zusammen zu fassenden Variablen aus.

variablen <- big_five %>% 
  select(O1:O10)

Anschließend können wir wie gewohnt mutate() verwenden. Die Funktion rowMeans() ist dabei so programmiert, dass sie für jede Zeile den Mittelwert berechnet. Um unser Ergebnis besser inspizieren zu können, wählen wir nur die neue Spalte Offenheit aus.

big_five %>% 
  mutate(Offenheit = rowMeans(variablen)) %>%
  select(Offenheit)

## # A tibble: 200 x 1
##   Offenheit
##       <dbl>
## 1       3.6
## 2       3.8
## 3       3.2
## 4       2.9
## # ... with 196 more rows

Alternativ könnte man select() auch direkt innerhalb von rowMeans aufrufen.

big_five %>% 
  mutate(Offenheit = rowMeans(select(., O1:O10))) 

Der Punkt ist dabei ein sogenannter Platzhalter für den eigentlichen Datensatz (siehe Kapitel 15.3.2). Es gibt neben rowMeans() ebenfalls die Funktion rowSums(). In Kapitel 15.3 wird gezeigt, wie man jede Funktion zeilenweise anwenden kann. Bisher haben wir uns nur bestimmte Funktionen angeguckt, die wir mit mutate() kombiniert haben. Dabei sind wir von “gewöhnlichen” Funktionsaufrufen mit Klammern abgewichen. Was es damit auf sich hat und wie man eigene Funktionen schreiben kann, wird unter Kapitel 15.1 genau erläutert.

Wir schauen uns in diesem Kapitel an, wie man Spalten logarithmiert und standardisiert (z-Werte). Dafür verwenden wir die bereits gelernte mutate_at() Funktion.

video1 %>% 
  mutate_at(vars(Anzahl), log)

## # A tibble: 146 x 2
##   Titel                 Anzahl
##   <chr>                  <dbl>
## 1 The Big Bang Theory     5.45
## 2 How I Met Your Mother   5.34
## 3 New Girl                4.88
## 4 Suits                   4.54
## # ... with 142 more rows

Dabei berechnet log() den natürlichen Algorithmus. Möchte man eine anderes Basis haben, muss man beispielsweise log2() oder log10() verwenden. In der Schreibweise oben überschreibt mutate_at() die Spalte n. Sprich, die Werte in der Spalte n werden logarithmiert. Ist dieses Verhalten nicht gewünscht, muss man den neuen Spaltennamen innerhalb von list() spezifizieren.

video1 %>% 
  mutate_at(vars(Anzahl), list(lg = log))

## # A tibble: 146 x 3
##   Titel                 Anzahl    lg
##   <chr>                  <int> <dbl>
## 1 The Big Bang Theory      232  5.45
## 2 How I Met Your Mother    208  5.34
## 3 New Girl                 131  4.88
## 4 Suits                     94  4.54
## # ... with 142 more rows

Mit mehr als einer Spalte, ergibt die selbe Syntax eine wahnsinnig nützliche Funktion, indem jeder Spalte der neue Spaltenname (hier lg) als Suffix angehängt wird. Um das zu illustrieren, erstellen wir zuerst eine neue Spalte namens new, die einfach zu jeder Anzahl gespielter Episoden n eine 1 hinzu addiert.

video1 %>% 
  mutate(new = Anzahl + 1) %>% 
  mutate_at(vars(Anzahl, new), list(lg = log))

## # A tibble: 146 x 5
##   Titel                 Anzahl   new Anzahl_lg new_lg
##   <chr>                  <int> <dbl>     <dbl>  <dbl>
## 1 The Big Bang Theory      232   233      5.45   5.45
## 2 How I Met Your Mother    208   209      5.34   5.34
## 3 New Girl                 131   132      4.88   4.88
## 4 Suits                     94    95      4.54   4.55
## # ... with 142 more rows

Suffixe sind praktisch, da wir sie mit einer Kombination aus select_at() und ends_with() auswählen können. Wollen wir beispielsweise nur mit den logarithmierten Spalten weiterrechnen, könnten wir diese einfach auswählen mit

video1 %>% 
  mutate(new = Anzahl + 1) %>% 
  mutate_at(vars(Anzahl, new), list(lg = log)) %>% 
  select_at(vars(ends_with("lg")))

## # A tibble: 146 x 2
##   Anzahl_lg new_lg
##       <dbl>  <dbl>
## 1      5.45   5.45
## 2      5.34   5.34
## 3      4.88   4.88
## 4      4.54   4.55
## # ... with 142 more rows

Standardisieren kann man genau auf die selbe Art mit scale(). Würde man alle numerischen Spalten standardisieren wollen, könnte man also scale() mit mutate_if() verwenden.

video1 %>% 
  mutate_if(is.numeric, scale)

## # A tibble: 146 x 2
##   Titel                 Anzahl[,1]
##   <chr>                      <dbl>
## 1 The Big Bang Theory         7.27
## 2 How I Met Your Mother       6.48
## 3 New Girl                    3.96
## 4 Suits                       2.75
## # ... with 142 more rows

In diesem Fall könnte man natürlich genauso gut mutate(n = scale(n)) schreiben. In den Übungen wird es anhand mehrerer Beispiele noch klarer, wann diese Suffix-Funktionen von großem Vorteil sein können. Es gibt noch diverse weitere Transformationen wie die Box-Cox Transformation, allerdings übersteigt dies den Rahmen des Buches.

8.8 Breites und langes Datenformat

Grundsätzlich kann man ein breites und ein langes Format unterscheiden. Daten in einem breiten Format sind in der Regel so, dass jede Spalte eine Variable, jede Zeile eine Beobachtung und jede Zelle ein Wert ist.

## # A tibble: 200 x 5
##   Alter Geschlecht Herkunft Extraversion Neurotizismus
##   <dbl> <chr>      <chr>           <dbl>         <dbl>
## 1    36 m          DE                3             1.9
## 2    30 f          US                3.1           3.4
## 3    23 m          US                3.4           2.4
## 4    54 m          US                3.3           4.2
## # ... with 196 more rows
…
Abbildung 8.1: Beispiel für einen breiten Datensatz mit drei Personen und zwei Variablen.

Das leuchtet ein, wenn wir uns vorstellen, wie wie beispielsweise ein Balkendiagramm aus den Daten machen wollen. Dafür schauen wir uns nur einen kleinen Ausschnitt aus dem big5 Datensatz an.

big <- big5 %>% 
  mutate(VPN = 1:200) %>% 
  select(VPN, Extraversion, Neurotizismus) %>% 
  top_n(-5, VPN)

## # A tibble: 5 x 3
##     VPN Extraversion Neurotizismus
##   <int>        <dbl>         <dbl>
## 1     1          3             1.9
## 2     2          3.1           3.4
## 3     3          3.4           2.4
## 4     4          3.3           4.2
## # ... with 1 more row
…
Abbildung 8.2: Beispiel für einen langen Datensatz mit Persönlichkeitsfaktor als within-subject Faktor.

Dabei sollen die Persönlichkeitsfaktoren auf der x-Achse und die mittlere Ausprägung auf der y-Achse sein. Aber mit dem breiten Datenformat können wir das nicht erreichen. Schließlich sind die Persönlichkeitsfaktoren in jeweils einer eigenen Spalte. Die Lösung bietet die pivot_longer() Funktion aus dem tidyr Package (enthalten im tidyverse). Das englische Wort pivot kann dabei als Drehpunkt übersetzt werden. Wir möchten den Datensatz von einem breiten in ein langes Format drehen. Die drei wichtigsten Argumente der Funktion sind cols, names_to und values_to. Wir übergeben cols (kurz für columns, Spalten) die Spalten, die wir lang machen möchten, names_to den Überbegriff der zusammen gewürfelten Variablen (hier die Persönlichkeitsfaktoren oder kurz Faktor) und values_to den Variablennamen für die Ausprägungen pro Person (hier Wert).

big_long <- big %>% 
  pivot_longer(
    cols = Extraversion:Neurotizismus,
    names_to = "Faktor",
    values_to = "Wert"
  )

## # A tibble: 10 x 3
##     VPN Faktor         Wert
##   <int> <chr>         <dbl>
## 1     1 Extraversion    3  
## 2     1 Neurotizismus   1.9
## 3     2 Extraversion    3.1
## 4     2 Neurotizismus   3.4
## # ... with 6 more rows
…
