Kapitel 6 Datenvorbereitung | R für empirische Wissenschaften
…
stringr: Veränderung von Buchstaben und Wörtern (siehe Kapitel 6.9).

forcats: Manipulation von Faktoren (siehe Kapitel 6.10).

lubridate: Arbeiten mit Zeitdaten (siehe Kapitel 6.11).

Die in diesem Kapitel eingeführten Funktionen zur Datenaufbereitung sind in sich konsistent. Man muss das Prinzip also nur einmal verstehen, um sämtliche Funktionen anwenden zu können. Dabei sind diese durch eine ausdrucksstarke Namensgebung beinahe schon selbsterklärend. Schauen wir uns zunächst eine typische Aneinanderreihung von Befehlen an:

big5 |> 
  select(Geschlecht, Extraversion) |> 
  filter(Geschlecht == "m") |> 
  mutate(Extraversion_lg = log(Extraversion))

# A tibble: 82 × 3
  Geschlecht Extraversion Extraversion_lg
  <chr>             <dbl>           <dbl>
1 m                   3              1.10
2 m                   3.4            1.22
3 m                   3.3            1.19
4 m                   3.5            1.25
# ℹ 78 more rows
…
Hier haben wir den Nachteil der erheblich schlechteren Lesbarkeit.

Beachte, dass sämtliche Änderungen, die du am Datensatz vollziehst, erst gespeichert werden, wenn du sie mit dem Zuweisungspfeil einer Variable zuweist (siehe Kapitel 4.2). Falls der gewählte Variablenname bereits vergeben ist (z.B. der bisherige Datensatzname), wird dieser überschrieben. Um das rückgängig zu machen, muss der Datensatz dann wieder neu eingelesen werden. Es empfiehlt sich bei einschneidenden Änderungen einen neuen Variablennamen zu wählen.

Ein zentrales Konzept ist die sogenannte Pipe (|>), die verschiedenste Funktionsaufrufe aneinanderbinden kann. Dabei wird der modifizierte Datensatz jeweils an die nächste Funktion weitergeben. In diesem Buch verwenden wir die Pipe (|>), welche seit der Version 4.1.0 direkt in R integriert ist. Älter ist die Pipe innerhalb des tidyverse, die mit %>% geschrieben wird. Die Funktionsweise der beiden Operatoren unterscheidet sich für die meisten NutzerInnen nicht nennenswert und langfristig wird die Base R Pipe (|>) weiter verbreitet sein.

6.2 Spalten auswählen, umbenennen und umsortieren

Die Funktionen in diesem Kapitel beschäftigen sich mit der Auswahl, Umbenennung und Umordnung von Spalten. Wir haben die Funktion select() bereits im vorherigen Abschnitt kennengelernt. Es können beliebig viele Spalten ausgewählt werden. Dies ist vor allem nützlich, wenn der Datensatz groß ist und man übersichtlich nur die Spalten haben möchte, die zur Auswertung verwendet werden. Zur Auswahl einer Spalte muss nur der Name (ohne Anführungszeichen) der Funktion übergeben werden. Man kann auch direkt in der Funktion die Spalte umbenennen. Dabei muss auf der linken Seite des Gleichheitszeichens der neue Name stehen.

big5 |> 
  select(Extraversion, Neuro = Neurotizismus)

# A tibble: 200 × 2
  Extraversion Neuro
         <dbl> <dbl>
1          3     1.9
2          3.1   3.4
3          3.4   2.4
4          3.3   4.2
# ℹ 196 more rows
…
Eine weitere nützliche Helferfunktion ist starts_with(). So könnte man in diesem Fall beispielsweise alle Fragen zum Persönlichkeitsfaktor Offenheit auswählen, da diese alle mit dem Buchstaben O beginnen.

big5 |> 
  select(starts_with("O"))

Mit der Helferfunktion ends_with() können auf dieselbe Art und Weise Spalten ausgewählt werden, die mit einem bestimmten Character enden (z.B. eine Spalte endend mit dem Buchstaben A), während die Helferfunktion contains() prüft, ob ein Character im Spaltennamen enthalten ist . Darüber hinaus gibt es noch all_of(), um alle zuvor ausgewählten Variablen (Spaltennamen als Character) auszuwählen.

Möchte man hingegen die Spalten nur umbenennen und dabei den gesamten Datensatz behalten, verwendet man anstelle von select() die Funktion rename(). Die Schreibweise der Argumente beim Umbenennen bleibt dabei im Vergleich zu select() gleich.

big5 |> 
  rename(Sex = Geschlecht)

# A tibble: 200 × 7
  Alter Sex   Extraversion Neurotizismus    O1    O2    O3
  <dbl> <chr>        <dbl>         <dbl> <dbl> <dbl> <dbl>
1    36 m              3             1.9     5     1     5
2    30 f              3.1           3.4     5     3     5
3    23 m              3.4           2.4     3     3     5
4    54 m              3.3           4.2     2     5     3
# ℹ 196 more rows

Während beide Funktionen Spalten umbenennen können, gibt select() nur die ausgewählten Spalten und rename() hingegen alle Spalten zurück.

Außerdem können Funktionen zur Umbenennung von Spalten verwendet werden. Dafür müssen wir rename_with() einfach nur die gewünschte Funktion (ohne Klammern) übergeben. In diesem Beispiel werden alle Buchstaben der Spaltennamen in Großbuchstaben umgewandelt. Alternativ könnten auch neue anonyme Funktion direkt innerhalb von rename_with() erstellt werden (siehe Kapitel 6.4.4).

big5 |> 
  rename_with(toupper)

# A tibble: 200 × 7
  ALTER GESCHLECHT EXTRAVERSION NEUROTIZISMUS    O1    O2    O3
  <dbl> <chr>             <dbl>         <dbl> <dbl> <dbl> <dbl>
1    36 m                   3             1.9     5     1     5
2    30 f                   3.1           3.4     5     3     5
3    23 m                   3.4           2.4     3     3     5
4    54 m                   3.3           4.2     2     5     3
# ℹ 196 more rows

Mit dem zusätzlichen Argument .cols könnte man die Umbenennung nur auf einen Teil der Spalten anwenden. Hierbei können wir ebenfalls die zuvor kennengelernten Helferfunktionen verwenden. Möchten wir bspw. nur jene Spaltennamen großschreiben, die mit einem A beginnen, könnten wir dies mit rename_with(.fn = toupper, .cols = starts_with("A")) erreichen.

Bei sehr großen Datensätzen mit vielen Spalten ist die Funktion relocate() äußerst nützlich. Eine neue Spalte wird zum Beispiel immer ans Ende des Datensatzes angefügt. Um diese trotzdem direkt am Anfang betrachten zu können, übergeben wir den Spaltennamen unserer Funktion.

big5 |> 
  relocate(O1)

# A tibble: 200 × 7
     O1 Alter Geschlecht Extraversion Neurotizismus    O2    O3
  <dbl> <dbl> <chr>             <dbl>         <dbl> <dbl> <dbl>
1     5    36 m                   3             1.9     1     5
2     5    30 f                   3.1           3.4     3     5
3     3    23 m                   3.4           2.4     3     5
4     2    54 m                   3.3           4.2     5     3
# ℹ 196 more rows
…
[1] "Alter"         "Geschlecht"    "Extraversion"  "Neurotizismus" "O1"           
[6] "O2"            "O3"           

Von Zeilennamen (rownames()) sollte hingegen grundsätzlich Abstand genommen werden. Falls der Datensatz Zeilennamen enthält, die tatsächlich von Bedeutung sind, sollte man diese mit der Funktion rownames_to_column("Spaltenname") aus dem tibble Package in eine eigene Spalte befördern.

Übung 6.2. (Noch nicht enthalten) Starte die Übung mit uebung_starten(6.2).

6.3 Zeilen auswählen und umsortieren

Anders als im vorherigen Kapitel beschäftigen sich diese beiden Funktionen mit der Auswahl und Umordnung von Zeilen. Der Funktion filter() muss dabei ein logischer Ausdruck übergeben werden. Das Ergebnis der Abfrage muss also immer TRUE oder FALSE zurückgeben (siehe Kapitel 4.3). Zur Auswahl aller männlichen Probanden würde man Geschlecht == "m" schreiben. Beachte an dieser Stelle das doppelte Gleichheitszeichen.

big5 |> 
  filter(Geschlecht == "m")

# A tibble: 82 × 7
  Alter Geschlecht Extraversion Neurotizismus    O1    O2    O3
  <dbl> <chr>             <dbl>         <dbl> <dbl> <dbl> <dbl>
1    36 m                   3             1.9     5     1     5
2    23 m                   3.4           2.4     3     3     5
3    54 m                   3.3           4.2     2     5     3
4    32 m                   3.5           3.1     3     1     5
# ℹ 78 more rows

Um Zeilen neu anzuordnen, benutzt man arrange(). Wenn die Zeilen nach aufsteigendem Alter sortiert werden sollen, muss man lediglich den Spaltennamen übergeben.

big5 |> 
  arrange(Alter)

Für eine absteigende Anordnung muss der Spaltennamen innerhalb der Helferfunktion desc() geschrieben werden.

big5 |> 
  arrange(desc(Alter))

# A tibble: 200 × 7
  Alter Geschlecht Extraversion Neurotizismus    O1    O2    O3
  <dbl> <chr>             <dbl>         <dbl> <dbl> <dbl> <dbl>
1  1995 f                   2.5           3.7     4     1     4
2  1964 f                   3.2           2.3     5     1     5
3    60 f                   3             2.7     5     1     5
4    59 m                   2.7           2.3     5     1     5
# ℹ 196 more rows
…
6.4 Spalten hinzufügen und Spalteninhalte verändern

6.4.1 Einzelne Spalten

Die Funktion mutate() ist eine sehr vielseitig einsetzbare Funktion zum Verändern bestehender oder zum Hinzufügen neuer Spalten. Dabei wird der neue oder bereits bestehende Spaltenname auf die linke Seite des Gleichheitszeichens geschrieben. Auf der rechten Seite kann so ziemlich alles stehen, solange die Funktion eine Spalte zurückgibt, die genauso lang ist wie der Datensatz. Einen Mittelwert über eine ganze Spalte könnte mit mutate() also nicht berechnet werden, da dabei nur ein einziger Wert zurückgeben werden würde. Mit der Funktion log() logarithmieren wir hingegen die Extraversionsausprägungen für jede Person, sodass wir 200 Werte erhalten.

big5 |> 
  mutate(Extraversion_lg = log(Extraversion))

Standardmäßig wird die neue erstellte Spalte hinten als letzte Spalte zum Datensatz hinzugefügt. Möchte man die neue Spalte an einer anderen Position haben, können wir dies mit dem zusätzlichen Argument .after erreichen. So könnte man die neue Spalte namens Extraversion_lg bspw. direkt hinter der Spalte Extraversion einfügen. Dem .after Argument können ebenfalls die in Kapitel 6.2 eingeführten Helferfunktion wie starts_with() und ends_with() übergeben werden.

big5 |> 
  mutate(Extraversion_lg = log(Extraversion), .after = Extraversion)

# A tibble: 200 × 8
  Alter Geschlecht Extraversion Extraversion_lg Neurotizismus    O1    O2    O3
  <dbl> <chr>             <dbl>           <dbl>         <dbl> <dbl> <dbl> <dbl>
1    36 m                   3              1.10           1.9     5     1     5
2    30 f                   3.1            1.13           3.4     5     3     5
3    23 m                   3.4            1.22           2.4     3     3     5
4    54 m                   3.3            1.19           4.2     2     5     3
# ℹ 196 more rows

Möchten wir die bestehende Spalte Extraversion mit den logarithmierten Werten überschreiben, wählen wir auf der linken Seite des Gleichheitszeichens ebenfalls den Spaltennamen Extraversion. Es wird folglich keine neue Spalte hinzugefügt, sondern nur eine bestehende verändert.

big5 |> 
  mutate(Extraversion = log(Extraversion))

# A tibble: 200 × 7
  Alter Geschlecht Extraversion Neurotizismus    O1    O2    O3
  <dbl> <chr>             <dbl>         <dbl> <dbl> <dbl> <dbl>
1    36 m                  1.10           1.9     5     1     5
2    30 f                  1.13           3.4     5     3     5
3    23 m                  1.22           2.4     3     3     5
4    54 m                  1.19           4.2     2     5     3
# ℹ 196 more rows

Innerhalb eines mutate() Aufrufes können wir auch mehrere Spalten einzeln neu erstellen oder verändern. Die verschiedenen Spalten müssen dabei lediglich mit einem Komma voneinander getrennt werden. Hier logarithmieren wir exemplarisch die mittlere Ausprägung von Extraversion und Neurotizismus. Der Abstand der öffnenden Klammer oben und der schließenden Klammer unten ist aus funktioneller Sicht nicht relevant. Es ist allerdings im Sinne der Lesbarkeit bei Benutzung mehrerer Argumenten unter Umständen sinnvoller, die Argumente auf mehrere Zeilen zu verteilen. Um unsere Berechnung überprüfen zu können, bringen wir noch unsere neuen mit lg endenden Spalten an den Anfang des Datensatzes (siehe Kapitel 6.2). Dies ist vor allem beim reinen Überprüfen nützlich, da der relocate() Aufruf im Anschluss übersichtlich wieder gelöscht werden kann. Möchte man die Anordnung dauerhaft verändern, ist das zuvor erwähnte Argument .after zu bevorzugen.

big5 |> 
  mutate(
    Extraversion_lg = log(Extraversion),
    Neurotizismus_lg = log(Neurotizismus)
  ) |> 
  relocate(ends_with("lg"))

# A tibble: 200 × 9
  Extraversion_lg Neurotizismus_lg Alter Geschlecht Extraversion Neurotizismus    O1    O2
            <dbl>            <dbl> <dbl> <chr>             <dbl>         <dbl> <dbl> <dbl>
1            1.10            0.642    36 m                   3             1.9     5     1
2            1.13            1.22     30 f                   3.1           3.4     5     3
3            1.22            0.875    23 m                   3.4           2.4     3     3
4            1.19            1.44     54 m                   3.3           4.2     2     5
# ℹ 196 more rows
# ℹ 1 more variable: O3 <dbl>

Übung 6.4.1. (Noch nicht enthalten) Starte die Übung mit uebung_starten(6.4.1).

6.4.2 Mehrere Spalten

Wenn man eine Funktion auf mehrere Spalten anwenden möchte, kann man die Berechnung, wie im vorherigen Kapitel gezeigt, entweder für jede Spalte separat vornehmen oder mithilfe von across() (engl. für herüber) den Prozess abkürzen. Wir wollen schließlich eine Funktion über mehrere Spalten anwenden. Innerhalb von across() erfolgt die Auswahl der Spalten dabei genau wie in select() (siehe Kapitel 6.2). So kann bspw. der Doppelpunkt zur Auswahl eines mehrere Spalten umfassenden Bereiches oder c() zur Auswahl einzelner Spalten verwendet werden. Wichtig ist das Setzen der Klammern an der richtigen Stelle, da die Funktion log() innerhalb von across() aufgerufen wird.

big5 |> 
  mutate(across(
    .cols = Extraversion:Neurotizismus,
    .fns = log,
    .names = "{.col}_lg")
  )

# A tibble: 200 × 9
  Alter Geschlecht Extraversion Neurotizismus    O1    O2    O3 Extraversion_lg
  <dbl> <chr>             <dbl>         <dbl> <dbl> <dbl> <dbl>           <dbl>
1    36 m                   3             1.9     5     1     5            1.10
2    30 f                   3.1           3.4     5     3     5            1.13
3    23 m                   3.4           2.4     3     3     5            1.22
4    54 m                   3.3           4.2     2     5     3            1.19
# ℹ 196 more rows
# ℹ 1 more variable: Neurotizismus_lg <dbl>
…
Übung 6.4.2. (Noch nicht enthalten) Starte die Übung mit uebung_starten(6.4.2).

6.4.3 Änderungen unter Bedingungen

Häufig möchte man Funktionen nicht auf alle Zeilen innerhalb der ausgewählten Spalten gleichermaßen anwenden. Wenn wir bspw. eine bestehende Spalte auf bestimmte Art und Weise nur dann verändern wollen, wenn eine bestimmte Bedingung zutrifft, erreichen wir dies mit der Funktion if_else(). Wir haben in Kapitel 6.3 gesehen, dass zwei Probandinnen ihr Geburtsjahr anstelle des Alters in Jahren angegeben haben. Wenn unsere Bedingung (condition) zutrifft, also das Alter in Jahren größer als 120 ist, soll das Jahr der Erhebung (2020) Minus das Alter gerechnet werden. Ansonsten (else bzw. false) wird nur das unveränderte Alter zurückgegeben. Anschließend überprüfen wir noch unsere Berechnung, indem wir das Alter wieder absteigend anordnen.

big5 |> 
  mutate(Alter = if_else(
    condition = Alter > 120, 
    true = 2020 - Alter, 
    false = Alter)
  ) |> 
  arrange(desc(Alter))

# A tibble: 200 × 7
  Alter Geschlecht Extraversion Neurotizismus    O1    O2    O3
  <dbl> <chr>             <dbl>         <dbl> <dbl> <dbl> <dbl>
1    60 f                   3             2.7     5     1     5
2    59 m                   2.7           2.3     5     1     5
3    59 m                   2.8           1.6     4     2     5
4    58 m                   2.3           2.9     5     1     4
# ℹ 196 more rows
…
Bei mehr als zwei Bedingungen können wir anstelle von if_else() die Funktion case_when() verwenden. Auf der linken Seite der Tilde (~) ist dabei immer die Bedingung angegeben, während auf der rechten Seite steht, was bei zutreffender Bedingung in die Spalte geschrieben werden soll. Allen Werten, auf die keine der explizit genannten Bedingungen zutrifft, wird NA (Akronym für Not Available, engl. für nicht vorhanden) zugewiesen. Dies kann vermieden werden, indem man am Ende das Argument .default als Bedingung hinzufügt. Achtung, hier wird ein Gleichheitszeichen verwendet, da es sich um ein gewöhnliches Argument handelt.

Somit werden in diesem Beispiel alle ProbandInnen, die bisher keiner Bedingung zugeordnet sind, in die ältesten Altersgruppe kategorisiert. Am Ende ordnen wir unsere neu erstellte Spalte zum Kontrollieren unserer Berechnung wie gewohnt nach vorne.

big5 |> 
  mutate(Gruppe = case_when(
    Alter <= 25 ~ "Jungspund",
    Alter > 25 & Alter <= 45  ~ "Mittel",
    between(Alter, 46, 65) ~ "Erfahren",
    .default = "Weise")
  ) |>
  relocate(Gruppe)

# A tibble: 200 × 8
  Gruppe    Alter Geschlecht Extraversion Neurotizismus    O1    O2    O3
  <chr>     <dbl> <chr>             <dbl>         <dbl> <dbl> <dbl> <dbl>
1 Mittel       36 m                   3             1.9     5     1     5
2 Mittel       30 f                   3.1           3.4     5     3     5
3 Jungspund    23 m                   3.4           2.4     3     3     5
4 Erfahren     54 m                   3.3           4.2     2     5     3
# ℹ 196 more rows
Die Helferfunktion between() ist eine übersichtliche Alternative zum kombinierten logischen Begriff eine Zeile darüber. Wichtig ist an dieser Stelle, dass der Datentyp auf der linken Seite der Tilde immer logisch sein muss. Der Ausdruck der linken Seite muss also entweder TRUE oder FALSE zurückgeben. Auf der rechten Seite der Tilde muss über alle Bedingungen hinweg immer der gleiche Datentyp sein. Wenn wir also wie hier den Datentyp Character haben, muss bei allen diesen Zuweisungen auf der rechten Seite der Datentyp übereinstimmen.

Ein weiterer praktischer Anwendungsfall ist die Umkodierung von Antwortoptionen bei Fragebogendaten. Angenommen, wir messen auf einer Skala von 1 (trifft gar nicht zu) bis 5 (trifft vollkommen zu) die Ausprägung der Offenheit für neue Erfahrungen. Um Verzerrungen zu vermeiden, sind in einem derartigen Fragebogen immer einige Items verneint gestellt. Normalerweise würde beispielsweise gefragt, ob man gerne neue Sportarten ausprobiert. Würden wir allerdings fragen, ob man ungerne neue Sportarten ausprobiert, trifft unsere Skala natürlich nicht mehr zu. Hier wäre 5 trifft gar nicht zu und 1 trifft vollkommen zu. Stellen wir uns vor, dies würde für die erste Frage zur Offenheit O1 zutreffen. Zum Vergleich erstellen wir eine neue Spalte namens O1_neu, welche die umkodierten Werte enthält. Um die Ausgabe zu überprüfen lassen wir die originale und neue Spalte mithilfe von relocate() zu Beginn ausgeben (siehe Kapitel 6.2).

big5 |> 
  mutate(O1_neu = case_when(
    O1 == 1 ~ 5,
    O1 == 2 ~ 4,
    O1 == 3 ~ 3,
    O1 == 4 ~ 2,
    O1 == 5 ~ 1)
  ) |> 
  relocate(O1, O1_neu)

# A tibble: 200 × 8
     O1 O1_neu Alter Geschlecht Extraversion Neurotizismus    O2    O3
  <dbl>  <dbl> <dbl> <chr>             <dbl>         <dbl> <dbl> <dbl>
1     5      1    36 m                   3             1.9     1     5
2     5      1    30 f                   3.1           3.4     3     5
3     3      3    23 m                   3.4           2.4     3     5
4     2      4    54 m                   3.3           4.2     5     3
# ℹ 196 more rows
…
