Kapitel 7 Deskriptive Statistik | R für empirische Wissenschaften
…
Die beschreibende Statistik bietet neben Informationen über die Verteilungen und Zusammenhänge der interessierenden Merkmale ebenfalls die Möglichkeit, unplausible Werte zu identifizieren, die mit den im vorherigen Kapitel gelernten Methoden entfernt oder korrigiert werden müssen. Die Beschreibungen der kontinuierlichen und kategorialen Merkmale dürfen in keiner wissenschaftlichen Arbeit fehlen.

7.1 Lagemaße und Streuungsmaße

Für dieses Kapitel müssen die Packages des tidyverse und remp installiert und geladen werden.

library(tidyverse)
library(remp)

Wir werden in diesem Kapitel den big5_mod Datensatz ohne die Spalte namens ID verwenden und bezeichnen diesen als big5_mod1.

big5_mod1 <- big5_mod |> select(-ID)
big5_mod1

# A tibble: 200 × 5
  Alter Geschlecht Extraversion Neurotizismus Gruppe
  <dbl> <chr>             <dbl>         <dbl> <fct> 
1    36 m                   3             1.9 Mittel
2    30 f                   3.1           3.4 Jung  
3    23 m                   3.4           2.4 Jung  
4    54 m                   3.3           4.2 Weise 
# ℹ 196 more rows
…
# A tibble: 3 × 10
  Variable          N   Min    Q1  Mean Median    Q3   Max    SD    SE
  <chr>         <int> <dbl> <dbl> <dbl>  <dbl> <dbl> <dbl> <dbl> <dbl>
1 Alter           200  13    18.8 26.5    23    31.2  60   11.4   0.8 
2 Extraversion    200   2.3   2.8  3.08    3     3.3   4.3  0.35  0.02
3 Neurotizismus   200   1.4   2.7  3.13    3.1   3.6   4.6  0.68  0.05

Zusätzlich könnte man mit dem .print Argument die Anzahl ausgegebener Spalten erhöhen. Für Grupperiungen der deskriptiven Statistiken verwenden wir die Funktion group_by() aus dem dplyr Package des tidyverse. Dabei können wir der Funktion beliebig viele Spalten ohne Anführungszeichen übergeben. So können wir beispielsweise nach Geschlecht aufteilen.

big5_mod1 |> 
  group_by(Geschlecht) |> 
  descriptive() 

# A tibble: 6 × 11
# Groups:   Geschlecht [2]
  Geschlecht Variable          N   Min    Q1  Mean Median    Q3   Max    SD    SE
  <chr>      <chr>         <int> <dbl> <dbl> <dbl>  <dbl> <dbl> <dbl> <dbl> <dbl>
1 f          Alter           118  14   18    25.9    22    29.8  60   11.4   1.05
2 f          Extraversion    118   2.4  2.8   3.05    3     3.2   4.3  0.36  0.03
3 f          Neurotizismus   118   1.4  2.82  3.25    3.3   3.7   4.6  0.63  0.06
4 m          Alter            82  13   20    27.3    23    32    59   11.4   1.25
# ℹ 2 more rows

Bei Interesse nach Unterschieden innerhalb der Geschlechter je nach Altersgruppe, fügen wir die Spalte Gruppe in die Funktion group_by() hinzu.

big5_mod1 |> 
  group_by(Geschlecht, Gruppe) |> 
  descriptive() 

# A tibble: 18 × 12
# Groups:   Geschlecht, Gruppe [6]
  Geschlecht Gruppe Variable          N   Min    Q1  Mean Median    Q3   Max    SD    SE
  <chr>      <fct>  <chr>         <int> <dbl> <dbl> <dbl>  <dbl> <dbl> <dbl> <dbl> <dbl>
1 f          Jung   Alter            89  14    17   20.4    20    23    30    4.21  0.45
2 f          Jung   Extraversion     89   2.4   2.8  3.07    3     3.3   4.3  0.37  0.04
3 f          Jung   Neurotizismus    89   1.4   2.9  3.29    3.3   3.6   4.6  0.58  0.06
4 f          Mittel Alter            20  31    34.8 39.0    39    42.2  49    5.16  1.15
# ℹ 14 more rows
…
