Kapitel 7 Deskriptive Statistik | R für empirische Wissenschaften
…
            R für empirische Wissenschaften

Kapitel 7 Deskriptive Statistik

7.1 Verschiedene Lagemaße

big5_mod 

## # A tibble: 200 x 5
##   Alter Geschlecht Extraversion Neurotizismus Gruppe
##   <dbl> <chr>             <dbl>         <dbl> <chr> 
## 1    36 m                   3             1.9 Mittel
## 2    30 f                   3.1           3.4 Jung  
## 3    23 m                   3.4           2.4 Jung  
## 4    54 m                   3.3           4.2 Weise 
## # ... with 196 more rows
…
## # A tibble: 3 x 10
##   Variable          N   Min    Q1  Mean Median    Q3   Max    SD    SE
##   <chr>         <int> <dbl> <dbl> <dbl>  <dbl> <dbl> <dbl> <dbl> <dbl>
## 1 Alter           200  13    18.8 26.5    23    31.2  60   11.4   0.8 
## 2 Extraversion    200   2.3   2.8  3.08    3     3.3   4.3  0.35  0.02
## 3 Neurotizismus   200   1.4   2.7  3.13    3.1   3.6   4.6  0.68  0.05

Möchte man gruppierten Output erhalten, verwendet man ebenfalls descriptive(). Nur müssen wir nun vorher mit group_by() die Variablen gruppieren. Dabei kann man der Funktion beliebig viele gruppierende Variablen übergeben. Die Funktion descriptive() hat außerdem noch das Argument .round welches die Nachkommastellen kontrolliert. Die Standardeinstellung beträgt zwei.

big5_mod %>% 
  group_by(Geschlecht) %>% 
  descriptive() 

## # A tibble: 6 x 11
## # Groups:   Geschlecht [2]
##   Geschlecht Variable          N   Min    Q1  Mean Median    Q3   Max    SD    SE
##   <chr>      <chr>         <int> <dbl> <dbl> <dbl>  <dbl> <dbl> <dbl> <dbl> <dbl>
## 1 f          Alter           118  14   18    25.9    22    29.8  60   11.4   1.05
## 2 f          Extraversion    118   2.4  2.8   3.05    3     3.2   4.3  0.36  0.03
## 3 f          Neurotizismus   118   1.4  2.82  3.25    3.3   3.7   4.6  0.63  0.06
## 4 m          Alter            82  13   20    27.3    23    32    59   11.4   1.25
## # ... with 2 more rows

big5_mod %>% 
  group_by(Geschlecht, Gruppe) %>% 
  descriptive() %>% 
  select(-(Median:SD)) 

## # A tibble: 18 x 8
## # Groups:   Geschlecht, Gruppe [6]
##   Geschlecht Gruppe Variable          N   Min    Q1  Mean    SE
##   <chr>      <chr>  <chr>         <int> <dbl> <dbl> <dbl> <dbl>
## 1 f          Jung   Alter            89  14    17   20.4   0.45
## 2 f          Jung   Extraversion     89   2.4   2.8  3.07  0.04
## 3 f          Jung   Neurotizismus    89   1.4   2.9  3.29  0.06
## 4 f          Mittel Alter            20  31    34.8 39.0   1.15
## # ... with 14 more rows
…
## `summarise()` regrouping output by 'Geschlecht' (override with `.groups` argument)

## # A tibble: 6 x 6
## # Groups:   Geschlecht [2]
##   Geschlecht Variable       Mean     SD Schiefe Kurtosis
##   <chr>      <chr>         <dbl>  <dbl>   <dbl>    <dbl>
## 1 f          Alter         25.9  11.4     1.36      4.00
## 2 f          Extraversion   3.05  0.358   0.903     4.37
## 3 f          Neurotizismus  3.25  0.633  -0.221     2.96
## 4 m          Alter         27.3  11.3     1.32      3.95
## # ... with 2 more rows
…
7.3 Häufigkeiten und Kontingenztafeln

Da die Funktion descriptive() nur numerische Daten auswertet, sei an dieser Stelle noch auf kategoreale Daten eingegangen. Dafür weichen wir etwas von der üblichen Syntax ab und verwenden die base R Funktion table(). Zum herausfinden der Geschlechtsverteilung müssen wir die Spalte Geschlecht des Datensatzes big_five mithilfe des Dollar-Operators (siehe Kapitel 12) der Funktion table() übergeben.

big5_mod %>% 
  group_by(Geschlecht, Gruppe) %>% 
  count()

## # A tibble: 6 x 3
## # Groups:   Geschlecht, Gruppe [6]
##   Geschlecht Gruppe     n
##   <chr>      <chr>  <int>
## 1 f          Jung      89
## 2 f          Mittel    20
## 3 f          Weise      9
## 4 m          Jung      58
## # ... with 2 more rows
…
