Kapitel 11 Ergebnisse exportieren | R für empirische Wissenschaften
…
          Standardfehler

            2

          Mittlere Ausprägung von Neurotizismus

Als weiteres Beispiel schauen wir uns an, wie wir die Ladungen einer explorativen Faktorenanalyse als Tabelle exportieren können. Dafür erstellen wir im ersten Schritt die Faktorenanalyse aus Kapitel 10.2 und formatieren die Ladungen mit der Funktion tidy() aus dem broom Package in einen tibble.

table1 <- big_five_comp %>% 
  select(E1:E3, N1:N3, A1:A3, C1:C3, O1:O3) %>% 
  factanal(factors = 5) %>% 
  tidy() 
table1

# A tibble: 15 x 7
  variable uniqueness     fl1     fl2     fl3      fl4     fl5
  <chr>         <dbl>   <dbl>   <dbl>   <dbl>    <dbl>   <dbl>
1 E1            0.561  0.646  -0.100   0.0220 -0.00242  0.105 
2 E2            0.624 -0.602   0.0182 -0.0923  0.0617   0.0151
3 E3            0.350  0.729  -0.255  -0.0250  0.160   -0.164 
4 N1            0.414 -0.0648  0.753  -0.0479 -0.0979   0.0615
# ... with 11 more rows

Der Übersichtlichkeit halber runden wir im ersten Schritt mithilfe von mutate() (siehe Kapitel 6.4) auf zwei Nachkommastellen. Anschließend schreiben wir einen NA Wert (fehlender Wert) in jede Zelle, welche eine Ladung mit einem Betrag (abs()) von weniger als 0.3 hat. Wir möchten schließlich die positiven wie negativen Ladungen mit einer Ladung von größer als 0.3 ausgegeben haben.

table1 <- table1 %>% 
  mutate(across(uniqueness:fl5, round, 2)) %>%
  mutate(across(fl1:fl5, ~ if_else(
    condition = abs(.x) < 0.3, 
    true = NA_real_, 
    false = .x))
  ) 
table1 %>% 
  print(n = 10)

# A tibble: 15 x 7
   variable uniqueness   fl1   fl2   fl3   fl4   fl5
   <chr>         <dbl> <dbl> <dbl> <dbl> <dbl> <dbl>
 1 E1             0.56  0.65 NA       NA  NA   NA   
 2 E2             0.62 -0.6  NA       NA  NA   NA   
 3 E3             0.35  0.73 NA       NA  NA   NA   
 4 N1             0.41 NA     0.75    NA  NA   NA   
 5 N2             0.66 NA    -0.55    NA  NA   NA   
 6 N3             0.45 NA     0.74    NA  NA   NA   
 7 A1             0.74 NA    NA       NA  NA    0.47
 8 A2             0.64  0.49 NA       NA  NA   -0.32
 9 A3             0.69 NA    NA       NA  NA    0.49
10 C1             0.61 NA    NA       NA   0.6 NA   
# ... with 5 more rows
…
