Kapitel 15 Funktionales Programmieren | R für empirische Wissenschaften
…
## [1] 2.8

Nun wollen wir uns noch ein zweites Beispiel ansehen. Dieses mal soll der Zahl, die der Funktion übergeben wird, eine weitere Zahl addiert werden. Diese weitere Zahl (number) kann bei jedem Funktionsaufruf verändert werden. Die Standardeinstellung sei auf 1 festgelegt. Das heißt, dass bei Auslassen des zweiten Arguments number der Zahl x eine 1 hinzugefügt wird.

add_number <- function(x, number = 1) {
  x + number
}

Erst einmal abgespeichert kann diese Funktion ganz normal zum Beispiel innerhalb von mutate() verwendet werden. Um das ganze zu illustrieren, geben wir unserer nagelneuen Funktion als zweites Argument eine 2.

big_five %>% 
  select(Extraversion) %>% 
  mutate(Extraversion = add_number(Extraversion, 2)) 

## # A tibble: 200 x 1
##   Extraversion
##          <dbl>
## 1          5  
## 2          5.1
## 3          5.4
## 4          5.3
## # … with 196 more rows
…
Dabei ist das erste Argument der zu verwertende Vektor und das zweite die Funktion, die innerhalb der selbst erstellten Funktion angewandt werden soll. In diesem Fall soll der zuvor erstellte Vektor vec summiert werden.

calc(vec, sum)

## [1] 29

15.2 Anonyme Lambda Funktionen

Anonyme Funktion unterscheiden sich von gewöhnlichen Funktionen nur in einer Hinsicht: sie haben keine Namen. Anstelle der add_number() Funktion aus dem vorherigen Kapitel könnte man die Funktion ebenso gut innerhalb von mutate_at() erstellen. Das ist gerade dann von Vorteil, wenn die Funktion nur in diesem einen Kontext angewendet werden soll und eine extra Erstellung und Speicherung der Funktion mit eigenem Funktionsname nicht zielführend ist.

big_five %>% 
  select(Extraversion) %>% 
  mutate_at(vars(Extraversion), function(x) x + 2)

## # A tibble: 200 x 1
##   Extraversion
##          <dbl>
## 1          5  
## 2          5.1
## 3          5.4
## 4          5.3
## # … with 196 more rows
…
Das Package purrr aus dem tidyverse enthält diverse Funktionen für iterative Prozesse, die map() im Namen haben. Wir konzentrieren uns an dieser Stelle nur auf zwei Vertreter dieser Funktion. Für weitere Informationen über spezielle Vertreter sei auf die Package Dokumentation verwiesen. Das selbe wie vorhin können wir nun ganz einfach wie folgt erreichen.

ls <- Faktors %>% 
  map(~ table(big5[["Geschlecht"]], big5[[.x]] > 3)) 

Durch die lambda Funktion ist die Syntax schön übersichtlich. Das Argument .x innerhalb der doppelten Klammern hinter big5 spezifiziert das Element von Faktors in der jeweiligen Iteration – also zuerst das erste, dann das zweite und so weiter. Die Liste ls muss dabei nicht vorher erstellt werden. Diese erstellte Liste verwenden wir nun zum Berechnen des Fisher Exact Test, da uns dort die Odds Ratio (OR) ausgespuckt wird.

odds_ratios <- ls %>% 
  map_df(~ tidy(fisher.test(.x))) %>% 
  mutate(Faktor = Faktors) %>% 
  select(Faktor, OR = estimate, conf.low, conf.high) 

odds_ratios

## # A tibble: 5 x 4
##   Faktor                OR conf.low conf.high
##   <chr>              <dbl>    <dbl>     <dbl>
## 1 Extraversion       1.15     0.628     2.11 
## 2 Neurotizismus      0.448    0.241     0.824
## 3 Vertraeglichkeit   0.962    0.499     1.87 
## 4 Gewissenhaftigkeit 0.771    0.416     1.43 
## # … with 1 more row
…
Zur Berechnung des Medians benötigen wir apply(). Besagte Funktion wendet eine bestimmte Funktion FUN entweder auf alle Zeilen (MARGIN = 1) oder auf alle Spalten (MARGIN = 2) an. Das erste Argument ist der Datensatz. Eingebettet in eine Funktion erhält man nun eine Funktion zur Berechnung des Medians für alle Zeilen.

rowMedian <- function(data) {
  apply(data, MARGIN = 1, FUN = median)
}

Erst einmal in einer Variable gespeichert, kann rowMedian() genau auf die selbe Art und Weise eingesetzt werden.

big5 %>% 
  mutate(Mean = rowMeans(mean_vars),
         Median = rowMedian(mean_vars)) %>% 
  select(Mean, Median)

## # A tibble: 200 x 2
##    Mean Median
##   <dbl>  <dbl>
## 1  3.04    3.3
## 2  3.22    3.1
## 3  3.12    3.2
## 4  3.4     3.3
## # … with 196 more rows
…
Durch die Funktion nest() können innerhalb von Zellen eines tibbles Datenstrukturen jeder Art innerhalb eingenistet werden. Um das Konzept zu illustrieren, muss der Datensatz zuerst in ein langes Format umgewandelt werden (siehe Kapitel 7.8).

df1 <- big5 %>% 
  pivot_longer(
    cols = Extraversion:Offenheit,
    names_to = "Faktor",
    values_to = "Wert"
  )

Nun möchten wir den Datensatz nach den Persönlichkeitsfaktoren unterteilen. Dafür müssen wir lediglich dem data Argument der Funktion nest() minus den Variablennamen (hier Faktor) übergeben.

df1 %>% 
  nest(data = -Faktor)

## # A tibble: 5 x 2
##   Faktor             data              
##   <chr>              <list>            
## 1 Extraversion       <tibble [200 × 4]>
## 2 Neurotizismus      <tibble [200 × 4]>
## 3 Vertraeglichkeit   <tibble [200 × 4]>
## 4 Gewissenhaftigkeit <tibble [200 × 4]>
## # … with 1 more row

Das Resultat ist ein tibble mit 5 Zeilen (für jeden Persönlichkeitsfaktor eine) und 2 Spalten. Die zweite Spalte data beinhaltet in jeder Zelle einen eigenen Datensatz mit 200 Zeilen und 4 Spalten. Die Spalte selbst beinhaltet nichts anderes als eine Liste. Angenommen, wir speichern das vorherige Ergebnis als nested_df. Dann können wir mit doppelten Klammern (siehe Kapitel 13.4) auf die Listenelemente zugreifen.

nested_df[[2]]

An dieser Stelle sei zur bessern Übersichtlichkeit lediglich der erste eingenestete Datensatz aus dem ersten Listenelement ausgegeben.

nested_df[[2]][[1]]

## # A tibble: 200 x 4
##   Alter Geschlecht Herkunft  Wert
##   <dbl> <chr>      <chr>    <dbl>
## 1    36 m          DE         3  
## 2    30 f          US         3.1
## 3    23 m          US         3.4
## 4    54 m          US         3.3
## # … with 196 more rows

Dieser beinhaltet den Datensatz nur für Extraversion. Es kommt also das selbe heraus, als würde man die Funktion filter() verwenden, mit dem Unterschied das für jede Ausprägungsstufe der Persönlichkeitsfaktoren der Datensatz gefiltert wird. Innerhalb dieser eingenisteten Listenelement kann sich alles befinden – auch statistische Ergebnisobjekte. Man kann nun auf jede dieser Zellen mithilfe von map() (siehe Kapitel 15.3.2) beispielsweise ein lineares Modell (siehe Kapitel 11.6.1) anwenden.

df1 %>% 
  nest(data = -Faktor) %>% 
  mutate(fit = map(data, ~ lm(Wert ~ Alter + Geschlecht, data = .)),
         results = map(fit, tidy))

## # A tibble: 5 x 4
##   Faktor             data               fit    results         
##   <chr>              <list>             <list> <list>          
## 1 Extraversion       <tibble [200 × 4]> <lm>   <tibble [3 × 5]>
## 2 Neurotizismus      <tibble [200 × 4]> <lm>   <tibble [3 × 5]>
## 3 Vertraeglichkeit   <tibble [200 × 4]> <lm>   <tibble [3 × 5]>
## 4 Gewissenhaftigkeit <tibble [200 × 4]> <lm>   <tibble [3 × 5]>
## # … with 1 more row

Nun sehen wir in der neuen Spalte fit die lm Ergebnisobjekte für jeden Persönlichkeitsfaktor und in results jeweils einen tibble mit der Zusammenfassung der wichtigsten Kennwerte. Um auf diese Kennwerte zuzugreifen, muss die Spalte results noch mit der Funktion unnest() entnestet werden. Zur besseren Übersichtlichkeit werden nur die Faktoren, der Term, der \(\beta\)-Koeffizient und der p-Wert.

df1 %>% 
  nest(data = -Faktor) %>% 
  mutate(fit = map(data, ~ lm(Wert ~ Alter + Geschlecht, data = .)),
         results = map(fit, tidy)) %>% 
  unnest(results) %>% 
  select(Faktor, term, beta = estimate, p.value)

## # A tibble: 15 x 4
##   Faktor        term            beta   p.value
##   <chr>         <chr>          <dbl>     <dbl>
## 1 Extraversion  (Intercept)  3.15    1.93e-112
## 2 Extraversion  Alter       -0.00390 7.15e-  2
## 3 Extraversion  Geschlechtm  0.0686  1.67e-  1
## 4 Neurotizismus (Intercept)  3.59    4.17e- 74
## # … with 11 more rows

15.5 Bedingte Anweisungen

Wir haben bedingte Anweisungen bereits in Kapitel 7.1 kennengelernt. Und zwar haben wir mit case_when() eine neue Spalte erstellt, deren Werte davon abhingen, ob die jeweils vorgegebene Bedingungen zutrifft. Möchte man beispielsweise die Ausprägung von Extraversion in hoch und niedrig einteilen je nachdem, ob der Wert in der Spalte Extraversion größer oder kleiner als 3 ist, könnte man case_when() wie bereits gelernt innerhalb von mutate() anwenden.

big5 %>% 
  select(Extraversion) %>% 
  mutate(Auspraegung = case_when(
    Extraversion > 3 ~ "hoch", 
    Extraversion <= 3 ~ "niedrig"
  ))

## # A tibble: 200 x 2
##   Extraversion Auspraegung
##          <dbl> <chr>      
## 1          3   niedrig    
## 2          3.1 hoch       
## 3          3.4 hoch       
## 4          3.3 hoch       
## # … with 196 more rows
…
