Kapitel 9 Inferenzstatistik | R für empirische Wissenschaften
…
## # A tibble: 4 x 5
##   term           sumsq    df statistic   p.value
##   <chr>          <dbl> <dbl>     <dbl>     <dbl>
## 1 (Intercept) 101.         1   851.     3.14e-73
## 2 Gruppe        0.314      2     1.32   2.69e- 1
## 3 Alter         0.0836     1     0.705  4.02e- 1
## 4 Residuals    23.2      196    NA     NA

Alternativ kann das Plus Zeichen mit einem Asterisk (beziehungsweise Muliplikationszeichen) ausgetauscht werden. So würde man die Interaktion der Kovariaten berücksichtigen und somit eine so genannte ANCOVA (Akronym für analysis of covariance) berechnen.

lm(Extraversion ~ Gruppe * Alter, data = big5_mod) %>% 
  Anova(type = 3) %>% 
  tidy()

## # A tibble: 5 x 5
##   term           sumsq    df statistic  p.value
##   <chr>          <dbl> <dbl>     <dbl>    <dbl>
## 1 (Intercept)  55.7        1   472.    7.66e-54
## 2 Gruppe        0.410      2     1.74  1.78e- 1
## 3 Alter         0.0834     1     0.707 4.02e- 1
## 4 Gruppe:Alter  0.334      2     1.42  2.45e- 1
## # … with 1 more row
…
