Kapitel 5 Datensätze | R für empirische Wissenschaften
…
Abbildung 5.1: Big Five Datensatz als Excel Dokument.

Beim Einlesen erkennt die Funktion import() die Art der Datei anhand der Endung und übernimmt hinter den Kulissen alles Weitere. Damit der Datensatz als sogenannter tibble eingelesen wird, solltest du zusätzlich das Argument setclass = "tbl" setzen. Weshalb wir die Sonderform der tibbles verwenden und was dies genau ist, wird im Verlaufe des Buches klar. Für den Moment musst du dir beim setclass Argument allerdings noch nichts denken, es aber trotzdem verwenden.

Würden wir nur die import() Funktion aufrufen, würde der Datensatz zwar eingelesen, aber sofort wieder verschwinden, da dieser in R nicht abgespeichert wäre. Daher müssen wir den eingelesenen Datensatz, so wie in Kapitel Kapitel 4.2 beschrieben, einer Variable zuordnen. Der Name dieser Variable ist dabei nicht wichtig. Falls mit mehr als einem Datensatz gearbeitet wird, sollte ein aussagekräftigerer Name als der hier verwendete Name daten verwendet werden.

Der Name des Datensatzes muss dabei in Anführungszeichen gesetzt werden. In unserem Beispiel heißt das Excel Dokument big_five.xlsx. Damit wir den Datensatz in R angezeigt bekommen, müssen wir den Namen des gespeicherten Datensatzes anschließend erneut ausführen (siehe Kapitel 4.2). Dabei wird der Variablenname (hier daten) und nicht der Name der eigentlichen Datei (hier big_five.xlsx) verwendet.

daten <- import("big_five.xlsx", setclass = "tbl")
daten

# A tibble: 200 × 16
  Alter Geschlecht Extraversion Neurotizismus Vertraeglichkeit Gewissenhaftigkeit    O1    O2
  <dbl> <chr>             <dbl>         <dbl>            <dbl>              <dbl> <dbl> <dbl>
1    36 m                   3             1.9              3.4                3.3     5     1
2    30 f                   3.1           3.4              3.1                2.7     5     3
3    23 m                   3.4           2.4              3.6                3       3     3
4    54 m                   3.3           4.2              3.6                3       2     5
# ℹ 196 more rows
# ℹ 8 more variables: O3 <dbl>, O4 <dbl>, O5 <dbl>, O6 <dbl>, O7 <dbl>, O8 <dbl>, O9 <dbl>,
#   O10 <dbl>
…
