Kapitel 13 Iterationen | R für empirische Wissenschaften
…
model1 <- lm(Extraversion ~ Geschlecht, data = mod1)
model2 <- lm(Extraversion ~ Geschlecht, data = mod2)
model3 <- lm(Extraversion ~ Geschlecht, data = mod3)

Die Berechnung ist falsch, sobald wir eine Zahl in den Variablennamen vergessen haben, entsprechend anzupassen. Würden wir 20 oder 30 verschiedene Modelle auf diese Art und Weise rechnen wollen, können wir uns fast sicher sein, dass sich irgendwo ein Fehler einschleicht.

13.2 Listenbasierte Berechnungen

Das purrr Package aus dem tidyverse enthält diverse Funktionen für iterative Prozesse. Wir werden uns im Folgenden map() und map_df() genauer anschauen. Dafür müssen wir die verschiedenen Datensätze in eine Liste packen. Pro Listenelement ein Datensatz auf den wir unsere Funktion (hier das Regressionsmodell) anwenden wollen.

mod_ls <- list(mod1, mod2, mod3)
mod_ls

[[1]]
# A tibble: 147 x 6
  Alter Geschlecht Extraversion Neurotizismus Gruppe    ID
  <dbl> <chr>             <dbl>         <dbl> <chr>  <int>
1    30 f                   3.1           3.4 Jung       2
2    23 m                   3.4           2.4 Jung       3
3    24 f                   3             2.8 Jung       5
4    14 f                   2.8           3.5 Jung       6
# ... with 143 more rows

[[2]]
# A tibble: 39 x 6
  Alter Geschlecht Extraversion Neurotizismus Gruppe    ID
  <dbl> <chr>             <dbl>         <dbl> <chr>  <int>
1    36 m                   3             1.9 Mittel     1
2    32 m                   3.5           3.1 Mittel     7
3    42 m                   2.9           1.7 Mittel    20
4    34 m                   3.5           2.2 Mittel    21
# ... with 35 more rows

[[3]]
# A tibble: 14 x 6
  Alter Geschlecht Extraversion Neurotizismus Gruppe    ID
  <dbl> <chr>             <dbl>         <dbl> <chr>  <int>
1    54 m                   3.3           4.2 Weise      4
2    56 f                   3.2           2.3 Weise     17
3    59 m                   2.7           2.3 Weise     29
4    56 f                   2.7           2.3 Weise     55
# ... with 10 more rows

Der erste Schritt ist die Berechnung der Regressionsmodelle mit einer Lambda Funktion innerhalb von map(). Als Ergebnis erhalten wir ebenfalls eine Liste mit einem Modell pro Listenelement. Um das ganze angenehmer ausgeben zu lassen, fügen wir als zweiten Schritt noch map_df() (für map data frame) hinzu. Wie der Name suggeriert, werden (falls durch die Datenstruktur möglich) die Listenelemente als tibble/data.frame ausgegeben. Dies erreichen wir wieder mit der Funktion tidy aus dem broom Package.

mod_ls %>% 
  map(~ lm(Extraversion ~ Geschlecht, data = .x)) %>% 
  map_df(tidy)

# A tibble: 6 x 5
  term        estimate std.error statistic   p.value
  <chr>          <dbl>     <dbl>     <dbl>     <dbl>
1 (Intercept)   3.07      0.0376    81.6   4.49e-123
2 Geschlechtm   0.0550    0.0598     0.919 3.60e-  1
3 (Intercept)   3.07      0.0649    47.3   1.08e- 34
4 Geschlechtm   0.0563    0.0930     0.605 5.49e-  1
# ... with 2 more rows
…
Nun sehen wir eine neue Spalte namens Modelle mit Einträgen des Datentyps <lm> (unsere linearen Modelle). Gleich daneben sind unsere Ergebnisse (p-Werte und Co.) wieder als tibble eingenistet. Damit wir nun an diese Ergebnisse herankommen, müssen wir abschließend lediglich diese mit unnest() aus der eingenisteten Struktur herausholen.

big5_mod %>% 
  group_by(Gruppe) %>% 
  nest() %>% 
  mutate(
    Modelle = map(data, ~ lm(Extraversion ~ Geschlecht, data = .x)),
    Ergebnisse = map(Modelle, tidy)
  ) %>% 
  unnest(Ergebnisse) %>% 
  select(Gruppe, term, estimate, p.value)

# A tibble: 6 x 4
# Groups:   Gruppe [3]
  Gruppe term        estimate   p.value
  <chr>  <chr>          <dbl>     <dbl>
1 Mittel (Intercept)   3.07   1.08e- 34
2 Mittel Geschlechtm   0.0563 5.49e-  1
3 Jung   (Intercept)   3.07   4.49e-123
4 Jung   Geschlechtm   0.0550 3.60e-  1
# ... with 2 more rows
…
