Kapitel 10 Latente Variablenmodelle | R für empirische Wissenschaften
…
Kapitel 10 Latente Variablenmodelle

10.1 Hauptkomponentenanalyse

Für die Hauptkomponentenanalyse verwenden wir eine Funktion aus dem psych Package, welches daher installiert und geladen werden muss.

library(psych)

Wir schauen uns einen Teil des vollständigen Big Five Datensatzes big_five_comp an, aus dem wir jeweils die ersten drei Items (Fragen zu den Persönlichkeitsfaktoren) auswählen. Diesen speichern wir als big_five_comp1 ab.

big_five_comp1 <- big_five_comp %>% 
  select(E1:E3, N1:N3, A1:A3, C1:C3, O1:O3)
big_five_comp1

# A tibble: 5,000 x 15
     E1    E2    E3    N1    N2    N3    A1    A2    A3    C1    C2    C3    O1    O2    O3
  <dbl> <dbl> <dbl> <dbl> <dbl> <dbl> <dbl> <dbl> <dbl> <dbl> <dbl> <dbl> <dbl> <dbl> <dbl>
1     4     2     5     1     5     2     1     5     1     4     1     5     4     1     3
2     2     2     3     2     3     4     1     3     3     4     1     3     3     3     3
3     5     1     1     5     1     5     5     1     5     4     1     5     4     5     5
4     2     5     2     5     4     4     2     5     4     3     3     4     4     3     5
# ... with 4,996 more rows
…
res_pca %>% 
  pluck("loadings")

Eine sogenannte naive Hauptkomponentenanalyse könnte mit den direkt in R integrierten Funktionen princomp() oder prcomp() berechnet werden. Naiv bedeutet in dem Kontext, dass keine Vorannahme über die Anzahl der vorhandenen Komponenten getroffen werden muss.

10.2 Explorative Faktorenanalyse

Für die explorative Maximum Likelihood Faktorenanalyse verwenden wir im Folgenden den gleichen Datensatz wie im vorherigen Kapitel.

big_five_comp1 <- big_five_comp %>% 
  select(E1:E3, N1:N3, A1:A3, C1:C3, O1:O3)
big_five_comp1

# A tibble: 5,000 x 15
     E1    E2    E3    N1    N2    N3    A1    A2    A3    C1    C2    C3    O1    O2    O3
  <dbl> <dbl> <dbl> <dbl> <dbl> <dbl> <dbl> <dbl> <dbl> <dbl> <dbl> <dbl> <dbl> <dbl> <dbl>
1     4     2     5     1     5     2     1     5     1     4     1     5     4     1     3
2     2     2     3     2     3     4     1     3     3     4     1     3     3     3     3
3     5     1     1     5     1     5     5     1     5     4     1     5     4     5     5
4     2     5     2     5     4     4     2     5     4     3     3     4     4     3     5
# ... with 4,996 more rows
…
Test of the hypothesis that 5 factors are sufficient.
The chi square statistic is 556.98 on 40 degrees of freedom.
The p-value is 2.82e-92 

Die Art der Rotation kann mit dem rotation Argument entweder auf orthogonal ( varimax) oder auf schräg respektive Oblique (promax) festgelegt werden. Eine Ausgabe bereit zum Weiterverarbeiten in Form eines tibbles erhalten wir an dieser Stelle wieder mit der tidy() Funktion aus dem broom Package.

big_five_comp1 %>% 
  factanal(factors = 5) %>% 
  tidy() 

# A tibble: 15 x 7
  variable uniqueness     fl1     fl2     fl3      fl4     fl5
  <chr>         <dbl>   <dbl>   <dbl>   <dbl>    <dbl>   <dbl>
1 E1            0.561  0.646  -0.100   0.0220 -0.00242  0.105 
2 E2            0.624 -0.602   0.0182 -0.0923  0.0617   0.0151
3 E3            0.350  0.729  -0.255  -0.0250  0.160   -0.164 
4 N1            0.414 -0.0648  0.753  -0.0479 -0.0979   0.0615
# ... with 11 more rows

Genau wie im vorherigen Kapitel können die Ladungen darüber hinaus ebenfalls mit pluck("loadings") extrahiert und ausgegeben werden. Eine Alternative stellt die fa() Funktion aus dem psych Package dar.

10.3 k-Means Clustering

Wir bleiben auch in diesem Kapitel beim Vorzeigen des k-Means Clustering beim Ausschnitt aus dem vollständigen Big Five Datensatz big_five_comp.

big_five_comp1 <- big_five_comp %>% 
  select(E1:E3, N1:N3, A1:A3, C1:C3, O1:O3)
big_five_comp1

# A tibble: 5,000 x 15
     E1    E2    E3    N1    N2    N3    A1    A2    A3    C1    C2    C3    O1    O2    O3
  <dbl> <dbl> <dbl> <dbl> <dbl> <dbl> <dbl> <dbl> <dbl> <dbl> <dbl> <dbl> <dbl> <dbl> <dbl>
1     4     2     5     1     5     2     1     5     1     4     1     5     4     1     3
2     2     2     3     2     3     4     1     3     3     4     1     3     3     3     3
3     5     1     1     5     1     5     5     1     5     4     1     5     4     5     5
4     2     5     2     5     4     4     2     5     4     3     3     4     4     3     5
# ... with 4,996 more rows

Auch beim k-Means Clustering verändert sich zu den beiden Funktionen aus den vorherigen Kapiteln nicht viel. Die Cluster erstellen wir mithilfe der direkt in R integrierten Funktion kmeans(), der wir mit dem centers Argument die Anzahl der erwarteten Cluster übergeben. Wir können so jede Person einem dieser 3 Cluster zuteilen.

k <- big_five_comp1 %>% 
  kmeans(centers = 3)

Anschließend könnte man die Cluster dem ursprünglichen Datensatz hinzufügen, um diese beispielsweise im nächsten Schritt gruppiert mithilfe von Ellipsen (siehe Kapitel 8.10) zu visualisieren.

big_five_comp1 %>% 
  mutate(Cluster = as.factor(k$cluster)) %>%
  relocate(Cluster)

# A tibble: 5,000 x 16
  Cluster    E1    E2    E3    N1    N2    N3    A1    A2    A3    C1    C2    C3    O1    O2
  <fct>   <dbl> <dbl> <dbl> <dbl> <dbl> <dbl> <dbl> <dbl> <dbl> <dbl> <dbl> <dbl> <dbl> <dbl>
1 2           4     2     5     1     5     2     1     5     1     4     1     5     4     1
2 2           2     2     3     2     3     4     1     3     3     4     1     3     3     3
3 3           5     1     1     5     1     5     5     1     5     4     1     5     4     5
4 1           2     5     2     5     4     4     2     5     4     3     3     4     4     3
# ... with 4,996 more rows, and 1 more variable: O3 <dbl>
…
Für alle Strukturmodelle der Unterkapitel verwenden wir das Package lavaan, welches installiert und geladen werden muss. Dieses Package befindet sich noch in der Testphase (Beta Phase), weswegen die Verwendung ausdrücklich ohne Garantie erfolgt. Auf mögliche Alternativen wird im entsprechenden Unterkapitel hingewiesen.

library("lavaan")

Der erste Schritt in der Analyse eines Strukturmodells ist immer die Visualisierung der Beziehungen mithilfe eines Directed Acyclic Graphs (DAGs). Wie diese direkt in R erstellt werden können, wurde bereits in Kapitel 8.16.4 erläutert.

Die in den folgenden Kapiteln vorgestellten Methoden werden häufig gedankenlos zur Untersuchung kausaler Beziehungen verwendet. Die geschätzten Pfadkoeffizienten werden dabei fälschlicherweise ohne Berücksichtigung der dafür notwendigen Voraussetzungen einfach kausal interpretiert. Dies ist allerdings nur unter speziellen, sehr strengen Bedingungen möglich. Für eine umfangreiche Diskussion dieser Probleme sowie für eine Einführung in die Interpretation kausaler Beziehungen sei auf The Book Of Why von Pearl & Mackenzie (2019) verwiesen.

10.4.1 Mediation

Zur exemplarischen Untersuchung einer möglichen Mediation verwenden wir an dieser Stelle den Datensatz literacy_mod, welcher unter anderem Daten aus einer Erhebung zur statistischen Bildung und dem Risikoverhalten beinhaltet.

literacy_mod

# A tibble: 146 x 3
  Risikoverhalten Schulbildung Literacy_total
            <dbl>        <dbl>          <dbl>
1            6.33            4          0.643
2            3.83            4          0.5  
3            1.5             1          0.643
4            5.83            5          0.786
# ... with 142 more rows
…
In der Ergebnisliste können nur nun die einzelnen Pfadkoeffizienten a, b und c unter Estimate betrachten. Auch der indirekte und totale Effekt ist aus der Liste ablesbar. Abgesehen vom lavaan Package kann auch das Package mediation verwendet werden.

Dieses Modell setzt neben einer linearen Beziehung unter anderem voraus, dass keine Confounder und Collider existieren, keine Interaktion der Fehlerterme von Schulbildung und Risikoverhalten besteht und die statistische Bildung nicht mit anderen Variablen interagiert. Die Pfadkoeffizienten können nicht ohne weiteres kausal interpretiert werden (siehe auch die Merkbox in Kapitel 10.4).

10.4.2 Konfirmatorische Faktorenanalyse

Zum Berechnen einer konfirmatorischen Faktorenanalyse verwenden wir an dieser Stelle eine Auswahl aus dem vollständigen big_five_comp Datensatz.

big_five_comp %>%
  select(E1:E3, N1:N3, A1:A3, C1:C3, O1:O3) 

# A tibble: 5,000 x 15
     E1    E2    E3    N1    N2    N3    A1    A2    A3    C1    C2    C3    O1    O2    O3
  <dbl> <dbl> <dbl> <dbl> <dbl> <dbl> <dbl> <dbl> <dbl> <dbl> <dbl> <dbl> <dbl> <dbl> <dbl>
1     4     2     5     1     5     2     1     5     1     4     1     5     4     1     3
2     2     2     3     2     3     4     1     3     3     4     1     3     3     3     3
3     5     1     1     5     1     5     5     1     5     4     1     5     4     5     5
4     2     5     2     5     4     4     2     5     4     3     3     4     4     3     5
# ... with 4,996 more rows
…
  Test statistic                              5907.845
  Degrees of freedom                               242
  P-value (Chi-square)                           0.000

Um nun die vollständige standardisierte Ergebnisliste mit den wichtigsten Indizes herauszubekommen, würde man summary() verwenden. Da die Ergebnisliste sehr lang ist und wir im nächsten Kapitel ausführlich darauf zu sprechen kommen, sei an dieser Stelle darauf verzichtet.

summary(fit2, fit.measures = TRUE, standardized = TRUE)

Einzelne Ergebnisse wie die Indizes (fitMeasures(fit2)) oder die Residuen (resid(fit2)) können mit dedizierten Funktionen aus der Ergebnisliste extrahiert werden. Die einzelnen Schätzer können mithilfe der Funktion parameterEstimates() ausgegeben werden.

parameterEstimates(fit2) %>% 
  as_tibble() %>% 
  print(n = 10)

# A tibble: 63 x 9
   lhs    op    rhs      est     se     z pvalue ci.lower ci.upper
   <chr>  <chr> <chr>  <dbl>  <dbl> <dbl>  <dbl>    <dbl>    <dbl>
 1 Extrav =~    E1     1     0       NA       NA    1        1    
 2 Extrav =~    E2    -1.11  0.0296 -37.6      0   -1.17    -1.06 
 3 Extrav =~    E3     1.19  0.0291  40.9      0    1.13     1.25 
 4 Extrav =~    E4    -1.04  0.0277 -37.7      0   -1.10    -0.990
 5 Extrav =~    E5     1.30  0.0308  42.3      0    1.24     1.37 
 6 Neurot =~    N1     1     0       NA       NA    1        1    
 7 Neurot =~    N2    -0.671 0.0200 -33.5      0   -0.711   -0.632
 8 Neurot =~    N3     0.783 0.0212  37.0      0    0.742    0.825
 9 Neurot =~    N4    -0.422 0.0197 -21.5      0   -0.461   -0.384
10 Gewiss =~    C1     1     0       NA       NA    1        1    
# ... with 53 more rows

Anstelle des lavaan Packages kann auch das Package sem verwendet werden.

10.4.3 Strukturgleichungsmodell

Für das Beispiel eines Strukturgleichungsmodell erweitern wir im folgenden das Messmodell aus dem vorherigen Kapitel. Neben den jeweiligen Items für die einzelnen Persönlichkeitsfaktoren sind schließlich noch die soziodemographischen Variablen Geschlecht und Alter im Datensatz enthalten.

big_five_comp

# A tibble: 5,000 x 52
  Geschlecht    E1    E2    E3    E4    E5    E6    E7    E8    E9   E10    N1    N2    N3
  <chr>      <dbl> <dbl> <dbl> <dbl> <dbl> <dbl> <dbl> <dbl> <dbl> <dbl> <dbl> <dbl> <dbl>
1 f              4     2     5     2     5     1     4     3     5     1     1     5     2
2 m              2     2     3     3     3     3     1     5     1     5     2     3     4
3 m              5     1     1     4     5     1     1     5     5     1     5     1     5
4 m              2     5     2     4     3     4     3     4     4     5     5     4     4
# ... with 4,996 more rows, and 38 more variables: N4 <dbl>, N5 <dbl>, N6 <dbl>, N7 <dbl>,
#   N8 <dbl>, N9 <dbl>, N10 <dbl>, A1 <dbl>, A2 <dbl>, A3 <dbl>, A4 <dbl>, A5 <dbl>, A6 <dbl>,
#   A7 <dbl>, A8 <dbl>, A9 <dbl>, A10 <dbl>, C1 <dbl>, C2 <dbl>, C3 <dbl>, C4 <dbl>, C5 <dbl>,
#   C6 <dbl>, C7 <dbl>, C8 <dbl>, C9 <dbl>, C10 <dbl>, O1 <dbl>, O2 <dbl>, O3 <dbl>, O4 <dbl>,
#   O5 <dbl>, O6 <dbl>, O7 <dbl>, O8 <dbl>, O9 <dbl>, O10 <dbl>, Alter <dbl>
…
