Kapitel 4 Variablen | R für empirische Wissenschaften
…
1 < 2 | 1 == 2

## [1] TRUE

So können beliebig viele logischen Operationen miteinander kombiniert werden. Ein besonderer Fall logischer Datentypen ist NA (Akronym für Not Available), also die Bezeichnung für einen fehlenden Wert. Wir können einen Wert oder eine Variable auf seinen Datentyp überprüfen. Zurückgegeben wird uns nur TRUE oder FALSE. Die für uns interessanten Funktionen hierfür heißen is.numeric(), is.character(), is.logical() und is.na(). Natürlich gibt es auch is.double() und is.integer(), allerdings genügt uns für die Anwendungen in diesem Buch is.numeric(). Möchte man generell herausfinden, mit welchem Datentyp man es zu tun hat, verwendet man typeof().

typeof("R ist toll.")

## [1] "character"

Da es unpraktisch ist, bei diversen Spalten eines Datensatzes einzeln den Typ abzufragen, wird dieser in tibbles (siehe Kapitel 12.3) – dem Datensatzformat, welches wir innerhalb von R konsistent im gesamten Buch verwenden – direkt unter dem Spaltennamen angezeigt.

big5

## # A tibble: 200 x 7
##   Alter Geschlecht Extraversion Neurotizismus    O1    O2    O3
##   <dbl> <chr>             <dbl>         <dbl> <dbl> <dbl> <dbl>
## 1    36 m                   3             1.9     5     1     5
## 2    30 f                   3.1           3.4     5     3     5
## 3    23 m                   3.4           2.4     3     3     5
## 4    54 m                   3.3           4.2     2     5     3
## # … with 196 more rows
…
