Kapitel 8 Visualisierungen | R für empirische Wissenschaften
…
            R für empirische Wissenschaften

Kapitel 8 Visualisierungen

8.1 Einführung

Für die sämtliche Visualisierungen werden wir das ggplot Package aus dem tidyverse verwenden. ggplot steht dabei für grammar of graphics. Genau wie in der Datenvorbereitung geht es also auch hier darum, das zugrundeliegende Prinzip einmal zu verstehen, um es dann auf verschiedenste Abbildungstypen anzuwenden. Wir werden wie bei der deskriptiven Statistik (siehe Kapitel 7) auch hier mit der leicht modifizierten Variante des Big Five Datensatzes arbeiten.

big5_mod

# A tibble: 200 x 6
  Alter Geschlecht Extraversion Neurotizismus Gruppe    ID
  <dbl> <chr>             <dbl>         <dbl> <chr>  <int>
1    36 m                   3             1.9 Mittel     1
2    30 f                   3.1           3.4 Jung       2
3    23 m                   3.4           2.4 Jung       3
4    54 m                   3.3           4.2 Weise      4
# ... with 196 more rows
…
Das ist ein Platzhalter für eine Übung. Starte die Übung mit hands_on("test").

8.4 Boxplot

Würde man nur einen Boxplot für die mittlere Ausprägung von Extraversion erstellen wollen, könnte man dies genau wie in den beiden zuvor besprochenen Kapiteln nur durch das Auswechseln des Geomitry Layers mit geom_boxplot() erreichen. Nun ist dies allerdings eine seltene Situation. Meistens möchte man auf der x-Achse mehrere Variablen miteinander vergleichen. Wir möchten an dieser Stelle zum Beispiel Extraversion und Neurotizismus miteinander vergleichen. Um dies zu erreichen müssen wir den Datensatz vom breiten ins lange Datenformat transformieren. Wenn Dir das lange Datenformat kein Begriff ist, schaue Dir noch einmal das Kapitel 6.7 genauer an. Dort wird ausführlich die hier verwendete Funktion pivot_longer() eingeführt.

big5_long <- big5_mod %>% 
  pivot_longer(
    cols = Extraversion:Neurotizismus,
    names_to = "Faktor",
    values_to = "Auspraegung"
  )
big5_long

# A tibble: 400 x 6
  Alter Geschlecht Gruppe    ID Faktor        Auspraegung
  <dbl> <chr>      <chr>  <int> <chr>               <dbl>
1    36 m          Mittel     1 Extraversion          3  
2    36 m          Mittel     1 Neurotizismus         1.9
3    30 f          Jung       2 Extraversion          3.1
4    30 f          Jung       2 Neurotizismus         3.4
# ... with 396 more rows
…
ggplot(big5_means, aes(x = Faktor, y = Mean, group = 1)) + 
  geom_line() + 
  geom_point() + 
  geom_errorbar(aes(ymin = Mean - SD, 
                    ymax = Mean + SD), width = 0.2) 

Ein weiterer Anwendungsfall klassischer Liniendiagramme sind Scree Plots zur Auswahl der Anzahl der Faktoren für explorative Faktorenanalysen (siehe Kapitel 10.2). Dafür benötigen wir den kompletten Big Five Rohdatensatz mit den einzelnen Fragen zu den Persönlichkeitsfaktoren namens big_five_comp. Mit der im remp enthaltenen Funktion data_eigen() können praktisch die entsprechenden Eigenvalues berechnet werden, die wir im Scree Plot abbilden wollen.

big5_scree <- big_five_comp %>% 
  select(-Geschlecht) %>% 
  data_eigen()
big5_scree

# A tibble: 50 x 2
  Eigenvalues Dimension
        <dbl>     <int>
1        8.25         1
2        4.59         2
3        3.62         3
4        3.57         4
# ... with 46 more rows
…
Das ist ein Platzhalter für eine Übung. Starte die Übung mit hands_on("test").

8.11.2 Facets

Bei dreifaktoriellen müssen wir erst einmal einen weiteren Faktor (hier Gruppe) der Funktion group_by() übergeben.

big5_means3 <- big5_long %>% 
  group_by(Faktor, Geschlecht, Gruppe) %>% 
  summarise(
    Mean = mean(Auspraegung, na.rm = TRUE),
    SD = sd(Auspraegung, na.rm = TRUE)
  )
big5_means3

# A tibble: 12 x 5
# Groups:   Faktor, Geschlecht [4]
  Faktor       Geschlecht Gruppe  Mean    SD
  <chr>        <chr>      <chr>  <dbl> <dbl>
1 Extraversion f          Jung    3.07 0.373
2 Extraversion f          Mittel  3.07 0.299
3 Extraversion f          Weise   2.83 0.269
4 Extraversion m          Jung    3.12 0.324
# ... with 8 more rows
…
Abbildung 8.14: Dreifaktorielle Abbildung

Das Prinzip bleibt auch bei vierfaktoriellen Abbildung das gleiche. Wir erfinden dafür noch eine zusätzliche Spalte mit zwei Messzeitpunkten. Die Funktion rep() (repeat, engl. für wiederholen) wiederholt dabei die beiden Messzeitpunkte T1 und T2 jeweils 200 mal, da wir 400 Zeilen in unserem Datensatz haben. Das ist natürlich in der Praxis nicht notwendig, wenn wir bereits eine Spalte haben, nach der wir zusätzlich gruppieren möchten. Ansonsten fügen wir wie zuvor diesen weiteren Faktor zu group_by() hinzu.

big5_means4 <- big5_long %>% 
  mutate(Zeitpunkt = rep(c("T1", "T2"), each = 200)) %>% 
  group_by(Faktor, Geschlecht, 
           Gruppe, Zeitpunkt) %>% 
  summarise(
    Mean = mean(Auspraegung, na.rm = TRUE),
    SD = sd(Auspraegung, na.rm = TRUE)
  )
big5_means4

# A tibble: 24 x 6
# Groups:   Faktor, Geschlecht, Gruppe [12]
  Faktor       Geschlecht Gruppe Zeitpunkt  Mean    SD
  <chr>        <chr>      <chr>  <chr>     <dbl> <dbl>
1 Extraversion f          Jung   T1         3.08 0.391
2 Extraversion f          Jung   T2         3.06 0.362
3 Extraversion f          Mittel T1         2.93 0.121
4 Extraversion f          Mittel T2         3.13 0.336
# ... with 20 more rows
…
