BIG 5 Persönlichkeitstest: langes Format — big5_long • remp
…
  Auspraegung
Mittlere Ausprägung des jeweiligen Persönlichkeitsfaktors

  Zeitpunkt
Messzeitpunkt 1 oder 2

    Quelle

    https://openpsychometrics.org/_rawdata/ (modifiziert)

    Beispiele

big5_long
#> # A tibble: 400 × 7
#>    Alter Geschlecht Gruppe    ID Faktor        Auspraegung Zeitpunkt
#>    <dbl> <chr>      <chr>  <int> <chr>               <dbl> <chr>    
#>  1    36 m          Mittel     1 Extraversion          3   T1       
#>  2    36 m          Mittel     1 Neurotizismus         1.9 T1       
#>  3    30 f          Jung       2 Extraversion          3.1 T1       
#>  4    30 f          Jung       2 Neurotizismus         3.4 T1       
#>  5    23 m          Jung       3 Extraversion          3.4 T1       
#>  6    23 m          Jung       3 Neurotizismus         2.4 T1       
#>  7    54 m          Weise      4 Extraversion          3.3 T1       
#>  8    54 m          Weise      4 Neurotizismus         4.2 T1       
#>  9    24 f          Jung       5 Extraversion          3   T1       
#> 10    24 f          Jung       5 Neurotizismus         2.8 T1       
#> # ℹ 390 more rows
…
