Statistische Bildung — bildung • remp
…
  Bildung_pre
Mittlere Lösungswahrscheinlichkeit über alle Fragen vor der Intervention.

  Bildung_post
Mittlere Lösungswahrscheinlichkeit über alle Fragen nach Intervention.

  Bildung_gesamt
Mittlere Lösungswahrscheinlichkeit insgesamt.

    Beispiele

bildung
#> # A tibble: 146 × 14
#>    ID    Fragebogen   Geschlecht Alter Schulbildung        Risikosportarten
#>    <chr> <fct>        <fct>      <dbl> <chr>                          <dbl>
#>  1 1     Intervention f             26 Abitur                             1
#>  2 2     Keine        m             26 Abitur                             0
#>  3 3     Keine        f             28 Hauptschulabschluss                0
#>  4 4     Intervention m             26 Hochschulabschluss                 1
#>  5 5     Intervention m             25 Abitur                             1
#>  6 6     Keine        f             24 Lehrabschluss                      0
#>  7 7     Intervention f             55 Lehrabschluss                      0
#>  8 8     Keine        m             26 Hochschulabschluss                 0
#>  9 9     Intervention m             54 Hochschulabschluss                 1
#> 10 10    Keine        f             53 Hochschulabschluss                 1
#> # ℹ 136 more rows
#> # ℹ 8 more variables: Statistische_kenntnisse <dbl>,
#> #   Interesse_Wissenschaft <dbl>, Dospert_verhalten <dbl>,
#> #   Dospert_wahrnehmung <dbl>, Dospert_nutzen <dbl>, Bildung_pre <dbl>,
#> #   Bildung_post <dbl>, Bildung_gesamt <dbl>
…
