IQ und Kreativität — iq • remp
…
  Gruppe
Experimentalgruppen

  IQ
Durchschnittlicher Intelligenzquotient

  Kreativitaet
Erfundener Score zur Messung der Kreativität

    Beispiele

iq
#> # A tibble: 90 × 5
#>       ID Zeitpunkt Gruppe    IQ Kreativitaet
#>    <dbl> <chr>     <chr>  <dbl>        <dbl>
#>  1     1 t1        A       96.6         76.2
#>  2     2 t1        B      104.          57.0
#>  3     3 t1        C      117.          63.5
#>  4     4 t1        D       91.9         18.6
#>  5     5 t1        E      110.          73.6
#>  6     6 t1        F      124.          55.5
#>  7     7 t1        A       97.2         51.4
#>  8     8 t1        B      104.          71.8
#>  9     9 t1        C      119.          53.8
#> 10    10 t1        D       92.9         42.3
#> # ℹ 80 more rows
…
