Tipp WM: breites Format — tipp_wm_wide • remp
…
  Bob
Tipps von Bob.

  Charlie
Tipps von Charlie.

  Ergebnis
Wahres Ergebnis des Spiels.

    Beispiele

tipp_wm_wide
#> # A tibble: 64 × 7
#>    Thomas_Bayes Egon_Pearson Jerzy_Neyman Alice Bob   Charlie Ergebnis
#>    <chr>        <chr>        <chr>        <chr> <chr> <chr>   <chr>   
#>  1 2:0          1:0          2:1          2:1   3:1   2:1     5:0     
#>  2 1:3          0:0          0:2          1:2   0:2   0:2     0:1     
#>  3 0:0          0:2          1:1          1:1   2:1   1:1     0:1     
#>  4 1:2          1:1          2:1          2:4   2:2   1:0     3:3     
#>  5 2:1          NA           2:0          2:1   2:0   2:1     2:1     
#>  6 3:0          NA           3:1          2:1   2:1   4:0     1:1     
#>  7 0:2          1:2          0:2          1:2   2:1   1:2     0:1     
#>  8 4:0          1:2          3:0          1:0   3:0   4:0     2:0     
#>  9 2:1          0:0          1:1          1:1   0:1   1:0     0:1     
#> 10 3:0          1:0          2:0          3:1   3:1   2:0     0:1     
#> # ℹ 54 more rows
…
