BIG 5 Persönlichkeitstest: Modifikation 2 — big5_mod2 • remp
…
  O9
Ich verbringe Zeit damit über Dinge nachzudenken.

  O10
Ich bin voller Ideen.

    Quelle

    https://openpsychometrics.org/_rawdata/ (modifiziert)

    Beispiele

big5_mod2
#> # A tibble: 200 × 16
#>    Alter Geschlecht Extraversion Neurotizismus Vertraeglichkeit
#>    <dbl> <chr>             <dbl>         <dbl>            <dbl>
#>  1    36 m                   3             1.9              3.4
#>  2    30 f                   3.1           3.4              3.1
#>  3    23 m                   3.4           2.4              3.6
#>  4    54 m                   3.3           4.2              3.6
#>  5    24 f                   3             2.8              3  
#>  6    14 f                   2.8           3.5              3.2
#>  7    32 m                   3.5           3.1              4.2
#>  8    20 m                   3.5           2.6              3.5
#>  9    29 f                   3             3.7              3.2
#> 10    17 m                   3.1           3.6              3  
#> # ℹ 190 more rows
#> # ℹ 11 more variables: Gewissenhaftigkeit <dbl>, O1 <dbl>, O2 <dbl>, O3 <dbl>,
#> #   O4 <dbl>, O5 <dbl>, O6 <dbl>, O7 <dbl>, O8 <dbl>, O9 <dbl>, O10 <dbl>
…
