Behandlung einer Krebserkrankungen — chemo • remp
…
  Status
0: zensiert (ausgeschieden aus der Studie), 1: Tod. Simulation: Simulation: scale = 20, shape = 1

  Lebensqualitaet
Fragebogenergebnis zur Lebensqualität auf einer Skala von 1 (keine Lebensqualität) bis 10 (absolute Zufriedenheit). Simulation: Korrelation mit Schmerzen durch rho von -0.6.

  Schmerzen
Fragebogenergebnis zur subjektiven Schmerzintensität auf einer Skala von 1 (keine Schmerzen) bis 10 (unterträgliche Schmerzen). Simulation: siehe Lebensqualität.

    Beispiele

chemo
#> # A tibble: 450 × 13
#>    Pat_id Geschlecht Behandlung Leukos_t6 Leukos_t0 Alter Infektionen Stationaer
#>     <int> <chr>      <fct>          <dbl>     <dbl> <dbl>       <int>      <int>
#>  1      1 f          Radio           5.68      5.74    49           4          0
#>  2      2 f          Radiochemo      6.64      6.71    46           3          0
#>  3      3 m          Radio           5.97      6.03    41           3          0
#>  4      4 f          Radio           5.55      5.6     43           1          1
#>  5      5 f          Radio           5.6       5.66    47           3          0
#>  6      6 f          Chemo           5.96      6.02    45           4          0
#>  7      7 m          Chemo           5.6       5.65    50           4          0
#>  8      8 m          Chemo           5.4       5.45    43           3          0
#>  9      9 m          Radiochemo      5.92      5.98    37           1          0
#> 10     10 m          Radiochemo      5.63      5.68    47           2          0
#> # ℹ 440 more rows
#> # ℹ 5 more variables: Komorb <fct>, Beob_zeit <dbl>, Status <dbl>,
#> #   Schmerzen <int>, Lebensqualitaet <int>
…
