Musikstreaming Nutzerstatistik — musikstream • remp
…
  Anzahl
Anzahl der Lieder auf dem jeweiligen Album

  Bekanntheit
Index zur Quantifizierung der Bekanntheit.

  Release
Veröffentlichungsdatum des jeweiligen Albums oder Liedes

    Beispiele

musikstream
#> # A tibble: 50 × 6
#>    Lied                            Interpret Album Anzahl Bekanntheit Release   
#>    <chr>                           <chr>     <chr>  <dbl>       <dbl> <date>    
#>  1 Runnin'                         Machine … Lace…     13           0 2012-01-01
#>  2 Drop The World                  Lil Wayne Rebi…     14          57 2010-01-01
#>  3 Another Love                    Tom Odell Long…     15          70 2013-06-21
#>  4 I Need A Doctor                 Dr. Dre   I Ne…      1           7 2010-01-01
#>  5 Radioactive                     Imagine … Radi…      1           3 2014-01-01
#>  6 Beautiful Pain                  Eminem    The …     21           8 2013-11-05
#>  7 'Till I Collapse                Eminem    The …     20          14 2002-05-26
#>  8 Otherside (feat. Fences) [Ryan… Macklemo… VS. …      6          53 2010-10-20
#>  9 Love The Way You Lie            Eminem    Reco…     17          15 2010-06-18
#> 10 Rock Bottom                     Eminem    The …     20           0 1999-02-23
#> # ℹ 40 more rows
…
