Videostreaming Nutzerstatistik — videostream • remp
…
  Staffel
Staffelnummer

  Folge
Name der Folge

  Watchdate
Datum, an dem der Titel geschaut wurde. Beachte, dass aus didaktischen Gründen bewusst das falsche Datenformat vorliegt.

    Beispiele

videostream
#> # A tibble: 1,455 × 4
#>    Titel                 Staffel    Folge                    Watchdate          
#>    <chr>                 <chr>      <chr>                    <dttm>             
#>  1 The Big Bang Theory   Staffel 10 Das kuenstliche Koffein… 2018-02-17 00:00:00
#>  2 New Girl              Staffel 2  Der Tag danach           2017-11-14 00:00:00
#>  3 Archer                Staffel 4  Fugue and Riffs          2017-09-01 00:00:00
#>  4 The Big Bang Theory   Staffel 4  31 Liebhaber, aufgerund… 2017-12-06 00:00:00
#>  5 Suits                 Staffel 4  Wie du mir, so ich dir   2018-03-03 00:00:00
#>  6 Suits                 Staffel 2  Krieg                    2018-10-18 00:00:00
#>  7 How I Met Your Mother Staffel 3  Die Ziege                2018-08-18 00:00:00
#>  8 The Big Bang Theory   Staffel 4  Finger weg von meiner S… 2017-12-11 00:00:00
#>  9 Californication       Staffel 7  Ein Abend mit Freunden   2016-04-26 00:00:00
#> 10 Californication       Staffel 5  Eine Mutter kommt selte… 2017-04-17 00:00:00
#> # ℹ 1,445 more rows
…
